lab1_workingfolder/fullAdder-8bit/fulladder_8bit.vcd
$date
  Thu Jan 21 23:03:14 2016
$end
$version
  GHDL v0
$end
$timescale
  1 fs
$end
$var reg 8 ! a[7:0] $end
$var reg 8 " b[7:0] $end
$var reg 1 # cout $end
$var reg 8 $ sum[7:0] $end
$scope module mapping $end
$var reg 8 % a[7:0] $end
$var reg 8 & b[7:0] $end
$var reg 8 ' sum[7:0] $end
$var reg 1 ( cout $end
$var reg 8 ) signal_cout[7:0] $end
$scope module fa1 $end
$var reg 1 * a $end
$var reg 1 + b $end
$var reg 1 , cin $end
$var reg 1 - sum $end
$var reg 1 . cout $end
$var reg 1 / halftohalf $end
$var reg 1 0 halftoor1 $end
$var reg 1 1 halftoor2 $end
$scope module ha1 $end
$var reg 1 2 a $end
$var reg 1 3 b $end
$var reg 1 4 sum $end
$var reg 1 5 cout $end
$scope module g1 $end
$var reg 1 6 a $end
$var reg 1 7 b $end
$var reg 1 8 c $end
$upscope $end
$scope module g2 $end
$var reg 1 9 a $end
$var reg 1 : b $end
$var reg 1 ; c $end
$upscope $end
$upscope $end
$scope module ha2 $end
$var reg 1 < a $end
$var reg 1 = b $end
$var reg 1 > sum $end
$var reg 1 ? cout $end
$scope module g1 $end
$var reg 1 @ a $end
$var reg 1 A b $end
$var reg 1 B c $end
$upscope $end
$scope module g2 $end
$var reg 1 C a $end
$var reg 1 D b $end
$var reg 1 E c $end
$upscope $end
$upscope $end
$scope module or1 $end
$var reg 1 F a $end
$var reg 1 G b $end
$var reg 1 H c $end
$upscope $end
$upscope $end
$scope module (1) $end
$scope module grp_fulladder $end
$var reg 1 I a $end
$var reg 1 J b $end
$var reg 1 K cin $end
$var reg 1 L sum $end
$var reg 1 M cout $end
$var reg 1 N halftohalf $end
$var reg 1 O halftoor1 $end
$var reg 1 P halftoor2 $end
$scope module ha1 $end
$var reg 1 Q a $end
$var reg 1 R b $end
$var reg 1 S sum $end
$var reg 1 T cout $end
$scope module g1 $end
$var reg 1 U a $end
$var reg 1 V b $end
$var reg 1 W c $end
$upscope $end
$scope module g2 $end
$var reg 1 X a $end
$var reg 1 Y b $end
$var reg 1 Z c $end
$upscope $end
$upscope $end
$scope module ha2 $end
$var reg 1 [ a $end
$var reg 1 \ b $end
$var reg 1 ] sum $end
$var reg 1 ^ cout $end
$scope module g1 $end
$var reg 1 _ a $end
$var reg 1 ` b $end
$var reg 1 a c $end
$upscope $end
$scope module g2 $end
$var reg 1 b a $end
$var reg 1 c b $end
$var reg 1 d c $end
$upscope $end
$upscope $end
$scope module or1 $end
$var reg 1 e a $end
$var reg 1 f b $end
$var reg 1 g c $end
$upscope $end
$upscope $end
$upscope $end
$scope module (2) $end
$scope module grp_fulladder $end
$var reg 1 h a $end
$var reg 1 i b $end
$var reg 1 j cin $end
$var reg 1 k sum $end
$var reg 1 l cout $end
$var reg 1 m halftohalf $end
$var reg 1 n halftoor1 $end
$var reg 1 o halftoor2 $end
$scope module ha1 $end
$var reg 1 p a $end
$var reg 1 q b $end
$var reg 1 r sum $end
$var reg 1 s cout $end
$scope module g1 $end
$var reg 1 t a $end
$var reg 1 u b $end
$var reg 1 v c $end
$upscope $end
$scope module g2 $end
$var reg 1 w a $end
$var reg 1 x b $end
$var reg 1 y c $end
$upscope $end
$upscope $end
$scope module ha2 $end
$var reg 1 z a $end
$var reg 1 { b $end
$var reg 1 | sum $end
$var reg 1 } cout $end
$scope module g1 $end
$var reg 1 !" a $end
$var reg 1 "" b $end
$var reg 1 #" c $end
$upscope $end
$scope module g2 $end
$var reg 1 $" a $end
$var reg 1 %" b $end
$var reg 1 &" c $end
$upscope $end
$upscope $end
$scope module or1 $end
$var reg 1 '" a $end
$var reg 1 (" b $end
$var reg 1 )" c $end
$upscope $end
$upscope $end
$upscope $end
$scope module (3) $end
$scope module grp_fulladder $end
$var reg 1 *" a $end
$var reg 1 +" b $end
$var reg 1 ," cin $end
$var reg 1 -" sum $end
$var reg 1 ." cout $end
$var reg 1 /" halftohalf $end
$var reg 1 0" halftoor1 $end
$var reg 1 1" halftoor2 $end
$scope module ha1 $end
$var reg 1 2" a $end
$var reg 1 3" b $end
$var reg 1 4" sum $end
$var reg 1 5" cout $end
$scope module g1 $end
$var reg 1 6" a $end
$var reg 1 7" b $end
$var reg 1 8" c $end
$upscope $end
$scope module g2 $end
$var reg 1 9" a $end
$var reg 1 :" b $end
$var reg 1 ;" c $end
$upscope $end
$upscope $end
$scope module ha2 $end
$var reg 1 <" a $end
$var reg 1 =" b $end
$var reg 1 >" sum $end
$var reg 1 ?" cout $end
$scope module g1 $end
$var reg 1 @" a $end
$var reg 1 A" b $end
$var reg 1 B" c $end
$upscope $end
$scope module g2 $end
$var reg 1 C" a $end
$var reg 1 D" b $end
$var reg 1 E" c $end
$upscope $end
$upscope $end
$scope module or1 $end
$var reg 1 F" a $end
$var reg 1 G" b $end
$var reg 1 H" c $end
$upscope $end
$upscope $end
$upscope $end
$scope module (4) $end
$scope module grp_fulladder $end
$var reg 1 I" a $end
$var reg 1 J" b $end
$var reg 1 K" cin $end
$var reg 1 L" sum $end
$var reg 1 M" cout $end
$var reg 1 N" halftohalf $end
$var reg 1 O" halftoor1 $end
$var reg 1 P" halftoor2 $end
$scope module ha1 $end
$var reg 1 Q" a $end
$var reg 1 R" b $end
$var reg 1 S" sum $end
$var reg 1 T" cout $end
$scope module g1 $end
$var reg 1 U" a $end
$var reg 1 V" b $end
$var reg 1 W" c $end
$upscope $end
$scope module g2 $end
$var reg 1 X" a $end
$var reg 1 Y" b $end
$var reg 1 Z" c $end
$upscope $end
$upscope $end
$scope module ha2 $end
$var reg 1 [" a $end
$var reg 1 \" b $end
$var reg 1 ]" sum $end
$var reg 1 ^" cout $end
$scope module g1 $end
$var reg 1 _" a $end
$var reg 1 `" b $end
$var reg 1 a" c $end
$upscope $end
$scope module g2 $end
$var reg 1 b" a $end
$var reg 1 c" b $end
$var reg 1 d" c $end
$upscope $end
$upscope $end
$scope module or1 $end
$var reg 1 e" a $end
$var reg 1 f" b $end
$var reg 1 g" c $end
$upscope $end
$upscope $end
$upscope $end
$scope module (5) $end
$scope module grp_fulladder $end
$var reg 1 h" a $end
$var reg 1 i" b $end
$var reg 1 j" cin $end
$var reg 1 k" sum $end
$var reg 1 l" cout $end
$var reg 1 m" halftohalf $end
$var reg 1 n" halftoor1 $end
$var reg 1 o" halftoor2 $end
$scope module ha1 $end
$var reg 1 p" a $end
$var reg 1 q" b $end
$var reg 1 r" sum $end
$var reg 1 s" cout $end
$scope module g1 $end
$var reg 1 t" a $end
$var reg 1 u" b $end
$var reg 1 v" c $end
$upscope $end
$scope module g2 $end
$var reg 1 w" a $end
$var reg 1 x" b $end
$var reg 1 y" c $end
$upscope $end
$upscope $end
$scope module ha2 $end
$var reg 1 z" a $end
$var reg 1 {" b $end
$var reg 1 |" sum $end
$var reg 1 }" cout $end
$scope module g1 $end
$var reg 1 !# a $end
$var reg 1 "# b $end
$var reg 1 ## c $end
$upscope $end
$scope module g2 $end
$var reg 1 $# a $end
$var reg 1 %# b $end
$var reg 1 &# c $end
$upscope $end
$upscope $end
$scope module or1 $end
$var reg 1 '# a $end
$var reg 1 (# b $end
$var reg 1 )# c $end
$upscope $end
$upscope $end
$upscope $end
$scope module (6) $end
$scope module grp_fulladder $end
$var reg 1 *# a $end
$var reg 1 +# b $end
$var reg 1 ,# cin $end
$var reg 1 -# sum $end
$var reg 1 .# cout $end
$var reg 1 /# halftohalf $end
$var reg 1 0# halftoor1 $end
$var reg 1 1# halftoor2 $end
$scope module ha1 $end
$var reg 1 2# a $end
$var reg 1 3# b $end
$var reg 1 4# sum $end
$var reg 1 5# cout $end
$scope module g1 $end
$var reg 1 6# a $end
$var reg 1 7# b $end
$var reg 1 8# c $end
$upscope $end
$scope module g2 $end
$var reg 1 9# a $end
$var reg 1 :# b $end
$var reg 1 ;# c $end
$upscope $end
$upscope $end
$scope module ha2 $end
$var reg 1 <# a $end
$var reg 1 =# b $end
$var reg 1 ># sum $end
$var reg 1 ?# cout $end
$scope module g1 $end
$var reg 1 @# a $end
$var reg 1 A# b $end
$var reg 1 B# c $end
$upscope $end
$scope module g2 $end
$var reg 1 C# a $end
$var reg 1 D# b $end
$var reg 1 E# c $end
$upscope $end
$upscope $end
$scope module or1 $end
$var reg 1 F# a $end
$var reg 1 G# b $end
$var reg 1 H# c $end
$upscope $end
$upscope $end
$upscope $end
$scope module (7) $end
$scope module grp_fulladder $end
$var reg 1 I# a $end
$var reg 1 J# b $end
$var reg 1 K# cin $end
$var reg 1 L# sum $end
$var reg 1 M# cout $end
$var reg 1 N# halftohalf $end
$var reg 1 O# halftoor1 $end
$var reg 1 P# halftoor2 $end
$scope module ha1 $end
$var reg 1 Q# a $end
$var reg 1 R# b $end
$var reg 1 S# sum $end
$var reg 1 T# cout $end
$scope module g1 $end
$var reg 1 U# a $end
$var reg 1 V# b $end
$var reg 1 W# c $end
$upscope $end
$scope module g2 $end
$var reg 1 X# a $end
$var reg 1 Y# b $end
$var reg 1 Z# c $end
$upscope $end
$upscope $end
$scope module ha2 $end
$var reg 1 [# a $end
$var reg 1 \# b $end
$var reg 1 ]# sum $end
$var reg 1 ^# cout $end
$scope module g1 $end
$var reg 1 _# a $end
$var reg 1 `# b $end
$var reg 1 a# c $end
$upscope $end
$scope module g2 $end
$var reg 1 b# a $end
$var reg 1 c# b $end
$var reg 1 d# c $end
$upscope $end
$upscope $end
$scope module or1 $end
$var reg 1 e# a $end
$var reg 1 f# b $end
$var reg 1 g# c $end
$upscope $end
$upscope $end
$upscope $end
$upscope $end
$enddefinitions $end
#0
b00000000 !
b00000001 "
0#
b00000001 $
b00000000 %
b00000001 &
b00000001 '
0(
b00000000 )
0*
1+
0,
1-
0.
1/
00
01
02
13
14
05
06
17
18
09
1:
0;
1<
0=
1>
0?
1@
0A
1B
1C
0D
0E
0F
0G
0H
0I
0J
0K
0L
0M
0N
0O
0P
0Q
0R
0S
0T
0U
0V
0W
0X
0Y
0Z
0[
0\
0]
0^
0_
0`
0a
0b
0c
0d
0e
0f
0g
0h
0i
0j
0k
0l
0m
0n
0o
0p
0q
0r
0s
0t
0u
0v
0w
0x
0y
0z
0{
0|
0}
0!"
0""
0#"
0$"
0%"
0&"
0'"
0("
0)"
0*"
0+"
0,"
0-"
0."
0/"
00"
01"
02"
03"
04"
05"
06"
07"
08"
09"
0:"
0;"
0<"
0="
0>"
0?"
0@"
0A"
0B"
0C"
0D"
0E"
0F"
0G"
0H"
0I"
0J"
0K"
0L"
0M"
0N"
0O"
0P"
0Q"
0R"
0S"
0T"
0U"
0V"
0W"
0X"
0Y"
0Z"
0["
0\"
0]"
0^"
0_"
0`"
0a"
0b"
0c"
0d"
0e"
0f"
0g"
0h"
0i"
0j"
0k"
0l"
0m"
0n"
0o"
0p"
0q"
0r"
0s"
0t"
0u"
0v"
0w"
0x"
0y"
0z"
0{"
0|"
0}"
0!#
0"#
0##
0$#
0%#
0&#
0'#
0(#
0)#
0*#
0+#
0,#
0-#
0.#
0/#
00#
01#
02#
03#
04#
05#
06#
07#
08#
09#
0:#
0;#
0<#
0=#
0>#
0?#
0@#
0A#
0B#
0C#
0D#
0E#
0F#
0G#
0H#
0I#
0J#
0K#
0L#
0M#
0N#
0O#
0P#
0Q#
0R#
0S#
0T#
0U#
0V#
0W#
0X#
0Y#
0Z#
0[#
0\#
0]#
0^#
0_#
0`#
0a#
0b#
0c#
0d#
0e#
0f#
0g#
#10000000
b00000001 !
b00000010 $
b00000001 %
b00000010 '
b00000001 )
1*
0-
1.
0/
10
12
04
15
16
08
19
1;
0<
0>
0@
0B
0C
1F
1H
1I
1L
1N
1Q
1S
1U
1W
1X
1[
1]
1_
1a
1b
#20000000
b00000010 !
b00000011 $
b00000010 %
b00000011 '
b00000000 )
0*
1-
0.
1/
00
02
14
05
06
18
09
0;
1<
1>
1@
1B
1C
0F
0H
0I
1J
1L
0M
1N
0O
0Q
1R
1S
0T
0U
1V
1W
0X
1Y
0Z
1[
1]
1_
1a
1b
0e
0g
0h
0k
0m
0p
0r
0t
0v
0w
0z
0|
0!"
0#"
0$"
#30000000
b00000011 !
b00000100 $
b00000011 %
b00000100 '
b00000011 )
1*
0-
1.
0/
10
12
04
15
16
08
19
1;
0<
0>
0@
0B
0C
1F
1H
1I
0L
1M
0N
1O
1Q
0S
1T
1U
0W
1X
1Z
0[
0]
0_
0a
0b
1e
1g
1h
1k
1m
1p
1r
1t
1v
1w
1z
1|
1!"
1#"
1$"
#40000000
b00000100 !
b00000101 $
b00000100 %
b00000101 '
b00000000 )
0*
1-
0.
1/
00
02
14
05
06
18
09
0;
1<
1>
1@
1B
1C
0F
0H
0I
0J
0L
0M
0N
0O
0Q
0R
0S
0T
0U
0V
0W
0X
0Y
0Z
0[
0]
0_
0a
0b
0e
0g
0h
1i
1k
0l
1m
0n
0p
1q
1r
0s
0t
1u
1v
0w
1x
0y
1z
1|
1!"
1#"
1$"
0'"
0)"
0*"
0-"
0/"
02"
04"
06"
08"
09"
0<"
0>"
0@"
0B"
0C"
#50000000
b00000101 !
b00000110 $
b00000101 %
b00000110 '
b00000001 )
1*
0-
1.
0/
10
12
04
15
16
08
19
1;
0<
0>
0@
0B
0C
1F
1H
1I
1L
1N
1Q
1S
1U
1W
1X
1[
1]
1_
1a
1b
#60000000
b00000110 !
b00000111 $
b00000110 %
b00000111 '
b00000000 )
0*
1-
0.
1/
00
02
14
05
06
18
09
0;
1<
1>
1@
1B
1C
0F
0H
0I
1J
1L
0M
1N
0O
0Q
1R
1S
0T
0U
1V
1W
0X
1Y
0Z
1[
1]
1_
1a
1b
0e
0g
0h
1k
0l
1m
0n
0p
1r
0s
0t
1v
0w
0y
1z
1|
1!"
1#"
1$"
0'"
0)"
0*"
0-"
0/"
02"
04"
06"
08"
09"
0<"
0>"
0@"
0B"
0C"
#70000000
b00000111 !
b00001000 $
b00000111 %
b00001000 '
b00000111 )
1*
0-
1.
0/
10
12
04
15
16
08
19
1;
0<
0>
0@
0B
0C
1F
1H
1I
0L
1M
0N
1O
1Q
0S
1T
1U
0W
1X
1Z
0[
0]
0_
0a
0b
1e
1g
1h
0k
1l
0m
1n
1p
0r
1s
1t
0v
1w
1y
0z
0|
0!"
0#"
0$"
1'"
1)"
1*"
1-"
1/"
12"
14"
16"
18"
19"
1<"
1>"
1@"
1B"
1C"
#80000000
b00001000 !
b00001001 $
b00001000 %
b00001001 '
b00000000 )
0*
1-
0.
1/
00
02
14
05
06
18
09
0;
1<
1>
1@
1B
1C
0F
0H
0I
0J
0L
0M
0N
0O
0Q
0R
0S
0T
0U
0V
0W
0X
0Y
0Z
0[
0]
0_
0a
0b
0e
0g
0h
0i
0k
0l
0m
0n
0p
0q
0r
0s
0t
0u
0v
0w
0x
0y
0z
0|
0!"
0#"
0$"
0'"
0)"
0*"
1+"
1-"
0."
1/"
00"
02"
13"
14"
05"
06"
17"
18"
09"
1:"
0;"
1<"
1>"
1@"
1B"
1C"
0F"
0H"
0I"
0L"
0N"
0Q"
0S"
0U"
0W"
0X"
0["
0]"
0_"
0a"
0b"
#90000000
b00001001 !
b00001010 $
b00001001 %
b00001010 '
b00000001 )
1*
0-
1.
0/
10
12
04
15
16
08
19
1;
0<
0>
0@
0B
0C
1F
1H
1I
1L
1N
1Q
1S
1U
1W
1X
1[
1]
1_
1a
1b
#100000000
b00001010 !
b00001011 $
b00001010 %
b00001011 '
b00000000 )
0*
1-
0.
1/
00
02
14
05
06
18
09
0;
1<
1>
1@
1B
1C
0F
0H
0I
1J
1L
0M
1N
0O
0Q
1R
1S
0T
0U
1V
1W
0X
1Y
0Z
1[
1]
1_
1a
1b
0e
0g
0h
0k
0m
0p
0r
0t
0v
0w
0z
0|
0!"
0#"
0$"
#110000000
b00001011 !
b00001100 $
b00001011 %
b00001100 '
b00000011 )
1*
0-
1.
0/
10
12
04
15
16
08
19
1;
0<
0>
0@
0B
0C
1F
1H
1I
0L
1M
0N
1O
1Q
0S
1T
1U
0W
1X
1Z
0[
0]
0_
0a
0b
1e
1g
1h
1k
1m
1p
1r
1t
1v
1w
1z
1|
1!"
1#"
1$"
#120000000
b00001100 !
b00001101 $
b00001100 %
b00001101 '
b00000000 )
0*
1-
0.
1/
00
02
14
05
06
18
09
0;
1<
1>
1@
1B
1C
0F
0H
0I
0J
0L
0M
0N
0O
0Q
0R
0S
0T
0U
0V
0W
0X
0Y
0Z
0[
0]
0_
0a
0b
0e
0g
0h
1i
1k
0l
1m
0n
0p
1q
1r
0s
0t
1u
1v
0w
1x
0y
1z
1|
1!"
1#"
1$"
0'"
0)"
0*"
1-"
0."
1/"
00"
02"
14"
05"
06"
18"
09"
0;"
1<"
1>"
1@"
1B"
1C"
0F"
0H"
0I"
0L"
0N"
0Q"
0S"
0U"
0W"
0X"
0["
0]"
0_"
0a"
0b"
#130000000
b00001101 !
b00001110 $
b00001101 %
b00001110 '
b00000001 )
1*
0-
1.
0/
10
12
04
15
16
08
19
1;
0<
0>
0@
0B
0C
1F
1H
1I
1L
1N
1Q
1S
1U
1W
1X
1[
1]
1_
1a
1b
#140000000
b00001110 !
b00001111 $
b00001110 %
b00001111 '
b00000000 )
0*
1-
0.
1/
00
02
14
05
06
18
09
0;
1<
1>
1@
1B
1C
0F
0H
0I
1J
1L
0M
1N
0O
0Q
1R
1S
0T
0U
1V
1W
0X
1Y
0Z
1[
1]
1_
1a
1b
0e
0g
0h
1k
0l
1m
0n
0p
1r
0s
0t
1v
0w
0y
1z
1|
1!"
1#"
1$"
0'"
0)"
0*"
1-"
0."
1/"
00"
02"
14"
05"
06"
18"
09"
0;"
1<"
1>"
1@"
1B"
1C"
0F"
0H"
0I"
0L"
0N"
0Q"
0S"
0U"
0W"
0X"
0["
0]"
0_"
0a"
0b"
#150000000
b00001111 !
b00010000 $
b00001111 %
b00010000 '
b00001111 )
1*
0-
1.
0/
10
12
04
15
16
08
19
1;
0<
0>
0@
0B
0C
1F
1H
1I
0L
1M
0N
1O
1Q
0S
1T
1U
0W
1X
1Z
0[
0]
0_
0a
0b
1e
1g
1h
0k
1l
0m
1n
1p
0r
1s
1t
0v
1w
1y
0z
0|
0!"
0#"
0$"
1'"
1)"
1*"
0-"
1."
0/"
10"
12"
04"
15"
16"
08"
19"
1;"
0<"
0>"
0@"
0B"
0C"
1F"
1H"
1I"
1L"
1N"
1Q"
1S"
1U"
1W"
1X"
1["
1]"
1_"
1a"
1b"
#160000000
b00010000 !
b00010001 $
b00010000 %
b00010001 '
b00000000 )
0*
1-
0.
1/
00
02
14
05
06
18
09
0;
1<
1>
1@
1B
1C
0F
0H
0I
0J
0L
0M
0N
0O
0Q
0R
0S
0T
0U
0V
0W
0X
0Y
0Z
0[
0]
0_
0a
0b
0e
0g
0h
0i
0k
0l
0m
0n
0p
0q
0r
0s
0t
0u
0v
0w
0x
0y
0z
0|
0!"
0#"
0$"
0'"
0)"
0*"
0+"
0-"
0."
0/"
00"
02"
03"
04"
05"
06"
07"
08"
09"
0:"
0;"
0<"
0>"
0@"
0B"
0C"
0F"
0H"
0I"
1J"
1L"
0M"
1N"
0O"
0Q"
1R"
1S"
0T"
0U"
1V"
1W"
0X"
1Y"
0Z"
1["
1]"
1_"
1a"
1b"
0e"
0g"
0h"
0k"
0m"
0p"
0r"
0t"
0v"
0w"
0z"
0|"
0!#
0##
0$#
#170000000
b00010001 !
b00010010 $
b00010001 %
b00010010 '
b00000001 )
1*
0-
1.
0/
10
12
04
15
16
08
19
1;
0<
0>
0@
0B
0C
1F
1H
1I
1L
1N
1Q
1S
1U
1W
1X
1[
1]
1_
1a
1b
#180000000
b00010010 !
b00010011 $
b00010010 %
b00010011 '
b00000000 )
0*
1-
0.
1/
00
02
14
05
06
18
09
0;
1<
1>
1@
1B
1C
0F
0H
0I
1J
1L
0M
1N
0O
0Q
1R
1S
0T
0U
1V
1W
0X
1Y
0Z
1[
1]
1_
1a
1b
0e
0g
0h
0k
0m
0p
0r
0t
0v
0w
0z
0|
0!"
0#"
0$"
#190000000
b00010011 !
b00010100 $
b00010011 %
b00010100 '
b00000011 )
1*
0-
1.
0/
10
12
04
15
16
08
19
1;
0<
0>
0@
0B
0C
1F
1H
1I
0L
1M
0N
1O
1Q
0S
1T
1U
0W
1X
1Z
0[
0]
0_
0a
0b
1e
1g
1h
1k
1m
1p
1r
1t
1v
1w
1z
1|
1!"
1#"
1$"
#200000000
b00010100 !
b00010101 $
b00010100 %
b00010101 '
b00000000 )
0*
1-
0.
1/
00
02
14
05
06
18
09
0;
1<
1>
1@
1B
1C
0F
0H
0I
0J
0L
0M
0N
0O
0Q
0R
0S
0T
0U
0V
0W
0X
0Y
0Z
0[
0]
0_
0a
0b
0e
0g
0h
1i
1k
0l
1m
0n
0p
1q
1r
0s
0t
1u
1v
0w
1x
0y
1z
1|
1!"
1#"
1$"
0'"
0)"
0*"
0-"
0/"
02"
04"
06"
08"
09"
0<"
0>"
0@"
0B"
0C"
#210000000
b00010101 !
b00010110 $
b00010101 %
b00010110 '
b00000001 )
1*
0-
1.
0/
10
12
04
15
16
08
19
1;
0<
0>
0@
0B
0C
1F
1H
1I
1L
1N
1Q
1S
1U
1W
1X
1[
1]
1_
1a
1b
#220000000
b00010110 !
b00010111 $
b00010110 %
b00010111 '
b00000000 )
0*
1-
0.
1/
00
02
14
05
06
18
09
0;
1<
1>
1@
1B
1C
0F
0H
0I
1J
1L
0M
1N
0O
0Q
1R
1S
0T
0U
1V
1W
0X
1Y
0Z
1[
1]
1_
1a
1b
0e
0g
0h
1k
0l
1m
0n
0p
1r
0s
0t
1v
0w
0y
1z
1|
1!"
1#"
1$"
0'"
0)"
0*"
0-"
0/"
02"
04"
06"
08"
09"
0<"
0>"
0@"
0B"
0C"
#230000000
b00010111 !
b00011000 $
b00010111 %
b00011000 '
b00000111 )
1*
0-
1.
0/
10
12
04
15
16
08
19
1;
0<
0>
0@
0B
0C
1F
1H
1I
0L
1M
0N
1O
1Q
0S
1T
1U
0W
1X
1Z
0[
0]
0_
0a
0b
1e
1g
1h
0k
1l
0m
1n
1p
0r
1s
1t
0v
1w
1y
0z
0|
0!"
0#"
0$"
1'"
1)"
1*"
1-"
1/"
12"
14"
16"
18"
19"
1<"
1>"
1@"
1B"
1C"
#240000000
b00011000 !
b00011001 $
b00011000 %
b00011001 '
b00000000 )
0*
1-
0.
1/
00
02
14
05
06
18
09
0;
1<
1>
1@
1B
1C
0F
0H
0I
0J
0L
0M
0N
0O
0Q
0R
0S
0T
0U
0V
0W
0X
0Y
0Z
0[
0]
0_
0a
0b
0e
0g
0h
0i
0k
0l
0m
0n
0p
0q
0r
0s
0t
0u
0v
0w
0x
0y
0z
0|
0!"
0#"
0$"
0'"
0)"
0*"
1+"
1-"
0."
1/"
00"
02"
13"
14"
05"
06"
17"
18"
09"
1:"
0;"
1<"
1>"
1@"
1B"
1C"
0F"
0H"
0I"
1L"
0M"
1N"
0O"
0Q"
1S"
0T"
0U"
1W"
0X"
0Z"
1["
1]"
1_"
1a"
1b"
0e"
0g"
0h"
0k"
0m"
0p"
0r"
0t"
0v"
0w"
0z"
0|"
0!#
0##
0$#
#250000000
b00011001 !
b00011010 $
b00011001 %
b00011010 '
b00000001 )
1*
0-
1.
0/
10
12
04
15
16
08
19
1;
0<
0>
0@
0B
0C
1F
1H
1I
1L
1N
1Q
1S
1U
1W
1X
1[
1]
1_
1a
1b
#260000000
b00011010 !
b00011011 $
b00011010 %
b00011011 '
b00000000 )
0*
1-
0.
1/
00
02
14
05
06
18
09
0;
1<
1>
1@
1B
1C
0F
0H
0I
1J
1L
0M
1N
0O
0Q
1R
1S
0T
0U
1V
1W
0X
1Y
0Z
1[
1]
1_
1a
1b
0e
0g
0h
0k
0m
0p
0r
0t
0v
0w
0z
0|
0!"
0#"
0$"
#270000000
b00011011 !
b00011100 $
b00011011 %
b00011100 '
b00000011 )
1*
0-
1.
0/
10
12
04
15
16
08
19
1;
0<
0>
0@
0B
0C
1F
1H
1I
0L
1M
0N
1O
1Q
0S
1T
1U
0W
1X
1Z
0[
0]
0_
0a
0b
1e
1g
1h
1k
1m
1p
1r
1t
1v
1w
1z
1|
1!"
1#"
1$"
#280000000
b00011100 !
b00011101 $
b00011100 %
b00011101 '
b00000000 )
0*
1-
0.
1/
00
02
14
05
06
18
09
0;
1<
1>
1@
1B
1C
0F
0H
0I
0J
0L
0M
0N
0O
0Q
0R
0S
0T
0U
0V
0W
0X
0Y
0Z
0[
0]
0_
0a
0b
0e
0g
0h
1i
1k
0l
1m
0n
0p
1q
1r
0s
0t
1u
1v
0w
1x
0y
1z
1|
1!"
1#"
1$"
0'"
0)"
0*"
1-"
0."
1/"
00"
02"
14"
05"
06"
18"
09"
0;"
1<"
1>"
1@"
1B"
1C"
0F"
0H"
0I"
1L"
0M"
1N"
0O"
0Q"
1S"
0T"
0U"
1W"
0X"
0Z"
1["
1]"
1_"
1a"
1b"
0e"
0g"
0h"
0k"
0m"
0p"
0r"
0t"
0v"
0w"
0z"
0|"
0!#
0##
0$#
#290000000
b00011101 !
b00011110 $
b00011101 %
b00011110 '
b00000001 )
1*
0-
1.
0/
10
12
04
15
16
08
19
1;
0<
0>
0@
0B
0C
1F
1H
1I
1L
1N
1Q
1S
1U
1W
1X
1[
1]
1_
1a
1b
#300000000
b00011110 !
b00011111 $
b00011110 %
b00011111 '
b00000000 )
0*
1-
0.
1/
00
02
14
05
06
18
09
0;
1<
1>
1@
1B
1C
0F
0H
0I
1J
1L
0M
1N
0O
0Q
1R
1S
0T
0U
1V
1W
0X
1Y
0Z
1[
1]
1_
1a
1b
0e
0g
0h
1k
0l
1m
0n
0p
1r
0s
0t
1v
0w
0y
1z
1|
1!"
1#"
1$"
0'"
0)"
0*"
1-"
0."
1/"
00"
02"
14"
05"
06"
18"
09"
0;"
1<"
1>"
1@"
1B"
1C"
0F"
0H"
0I"
1L"
0M"
1N"
0O"
0Q"
1S"
0T"
0U"
1W"
0X"
0Z"
1["
1]"
1_"
1a"
1b"
0e"
0g"
0h"
0k"
0m"
0p"
0r"
0t"
0v"
0w"
0z"
0|"
0!#
0##
0$#
#310000000
b00011111 !
b00100000 $
b00011111 %
b00100000 '
b00011111 )
1*
0-
1.
0/
10
12
04
15
16
08
19
1;
0<
0>
0@
0B
0C
1F
1H
1I
0L
1M
0N
1O
1Q
0S
1T
1U
0W
1X
1Z
0[
0]
0_
0a
0b
1e
1g
1h
0k
1l
0m
1n
1p
0r
1s
1t
0v
1w
1y
0z
0|
0!"
0#"
0$"
1'"
1)"
1*"
0-"
1."
0/"
10"
12"
04"
15"
16"
08"
19"
1;"
0<"
0>"
0@"
0B"
0C"
1F"
1H"
1I"
0L"
1M"
0N"
1O"
1Q"
0S"
1T"
1U"
0W"
1X"
1Z"
0["
0]"
0_"
0a"
0b"
1e"
1g"
1h"
1k"
1m"
1p"
1r"
1t"
1v"
1w"
1z"
1|"
1!#
1##
1$#
#320000000
b00100000 !
b00100001 $
b00100000 %
b00100001 '
b00000000 )
0*
1-
0.
1/
00
02
14
05
06
18
09
0;
1<
1>
1@
1B
1C
0F
0H
0I
0J
0L
0M
0N
0O
0Q
0R
0S
0T
0U
0V
0W
0X
0Y
0Z
0[
0]
0_
0a
0b
0e
0g
0h
0i
0k
0l
0m
0n
0p
0q
0r
0s
0t
0u
0v
0w
0x
0y
0z
0|
0!"
0#"
0$"
0'"
0)"
0*"
0+"
0-"
0."
0/"
00"
02"
03"
04"
05"
06"
07"
08"
09"
0:"
0;"
0<"
0>"
0@"
0B"
0C"
0F"
0H"
0I"
0J"
0L"
0M"
0N"
0O"
0Q"
0R"
0S"
0T"
0U"
0V"
0W"
0X"
0Y"
0Z"
0["
0]"
0_"
0a"
0b"
0e"
0g"
0h"
1i"
1k"
0l"
1m"
0n"
0p"
1q"
1r"
0s"
0t"
1u"
1v"
0w"
1x"
0y"
1z"
1|"
1!#
1##
1$#
0'#
0)#
0*#
0-#
0/#
02#
04#
06#
08#
09#
0<#
0>#
0@#
0B#
0C#
#330000000
b00100001 !
b00100010 $
b00100001 %
b00100010 '
b00000001 )
1*
0-
1.
0/
10
12
04
15
16
08
19
1;
0<
0>
0@
0B
0C
1F
1H
1I
1L
1N
1Q
1S
1U
1W
1X
1[
1]
1_
1a
1b
#340000000
b00100010 !
b00100011 $
b00100010 %
b00100011 '
b00000000 )
0*
1-
0.
1/
00
02
14
05
06
18
09
0;
1<
1>
1@
1B
1C
0F
0H
0I
1J
1L
0M
1N
0O
0Q
1R
1S
0T
0U
1V
1W
0X
1Y
0Z
1[
1]
1_
1a
1b
0e
0g
0h
0k
0m
0p
0r
0t
0v
0w
0z
0|
0!"
0#"
0$"
#350000000
b00100011 !
b00100100 $
b00100011 %
b00100100 '
b00000011 )
1*
0-
1.
0/
10
12
04
15
16
08
19
1;
0<
0>
0@
0B
0C
1F
1H
1I
0L
1M
0N
1O
1Q
0S
1T
1U
0W
1X
1Z
0[
0]
0_
0a
0b
1e
1g
1h
1k
1m
1p
1r
1t
1v
1w
1z
1|
1!"
1#"
1$"
#360000000
b00100100 !
b00100101 $
b00100100 %
b00100101 '
b00000000 )
0*
1-
0.
1/
00
02
14
05
06
18
09
0;
1<
1>
1@
1B
1C
0F
0H
0I
0J
0L
0M
0N
0O
0Q
0R
0S
0T
0U
0V
0W
0X
0Y
0Z
0[
0]
0_
0a
0b
0e
0g
0h
1i
1k
0l
1m
0n
0p
1q
1r
0s
0t
1u
1v
0w
1x
0y
1z
1|
1!"
1#"
1$"
0'"
0)"
0*"
0-"
0/"
02"
04"
06"
08"
09"
0<"
0>"
0@"
0B"
0C"
