lab1_workingfolder/full_addsub-8bit/fulladdsub.vcd
$date
  Sat Jan 23 12:07:40 2016
$end
$version
  GHDL v0
$end
$timescale
  1 fs
$end
$var reg 8 ! a[7:0] $end
$var reg 8 " b[7:0] $end
$var reg 8 # sum[7:0] $end
$var reg 1 $ cin $end
$var reg 1 % co $end
$var integer 32 & cnt $end
$scope module dut $end
$var reg 8 ' a[7:0] $end
$var reg 8 ( b[7:0] $end
$var reg 1 ) addsub $end
$var reg 8 * sum[7:0] $end
$var reg 1 + cout $end
$var reg 8 , cf[7:0] $end
$var reg 8 - temp[7:0] $end
$scope module x0 $end
$var reg 1 . a $end
$var reg 1 / b $end
$var reg 1 0 c $end
$upscope $end
$scope module x1 $end
$var reg 1 1 a $end
$var reg 1 2 b $end
$var reg 1 3 c $end
$upscope $end
$scope module x2 $end
$var reg 1 4 a $end
$var reg 1 5 b $end
$var reg 1 6 c $end
$upscope $end
$scope module x3 $end
$var reg 1 7 a $end
$var reg 1 8 b $end
$var reg 1 9 c $end
$upscope $end
$scope module x4 $end
$var reg 1 : a $end
$var reg 1 ; b $end
$var reg 1 < c $end
$upscope $end
$scope module x5 $end
$var reg 1 = a $end
$var reg 1 > b $end
$var reg 1 ? c $end
$upscope $end
$scope module x6 $end
$var reg 1 @ a $end
$var reg 1 A b $end
$var reg 1 B c $end
$upscope $end
$scope module x7 $end
$var reg 1 C a $end
$var reg 1 D b $end
$var reg 1 E c $end
$upscope $end
$scope module fa0 $end
$var reg 1 F a $end
$var reg 1 G b $end
$var reg 1 H cin $end
$var reg 1 I sum $end
$var reg 1 J cout $end
$var reg 1 K halftohalf $end
$var reg 1 L halftoor1 $end
$var reg 1 M halftoor2 $end
$scope module ha1 $end
$var reg 1 N a $end
$var reg 1 O b $end
$var reg 1 P sum $end
$var reg 1 Q cout $end
$scope module g1 $end
$var reg 1 R a $end
$var reg 1 S b $end
$var reg 1 T c $end
$upscope $end
$scope module g2 $end
$var reg 1 U a $end
$var reg 1 V b $end
$var reg 1 W c $end
$upscope $end
$upscope $end
$scope module ha2 $end
$var reg 1 X a $end
$var reg 1 Y b $end
$var reg 1 Z sum $end
$var reg 1 [ cout $end
$scope module g1 $end
$var reg 1 \ a $end
$var reg 1 ] b $end
$var reg 1 ^ c $end
$upscope $end
$scope module g2 $end
$var reg 1 _ a $end
$var reg 1 ` b $end
$var reg 1 a c $end
$upscope $end
$upscope $end
$scope module or1 $end
$var reg 1 b a $end
$var reg 1 c b $end
$var reg 1 d c $end
$upscope $end
$upscope $end
$scope module fa1 $end
$var reg 1 e a $end
$var reg 1 f b $end
$var reg 1 g cin $end
$var reg 1 h sum $end
$var reg 1 i cout $end
$var reg 1 j halftohalf $end
$var reg 1 k halftoor1 $end
$var reg 1 l halftoor2 $end
$scope module ha1 $end
$var reg 1 m a $end
$var reg 1 n b $end
$var reg 1 o sum $end
$var reg 1 p cout $end
$scope module g1 $end
$var reg 1 q a $end
$var reg 1 r b $end
$var reg 1 s c $end
$upscope $end
$scope module g2 $end
$var reg 1 t a $end
$var reg 1 u b $end
$var reg 1 v c $end
$upscope $end
$upscope $end
$scope module ha2 $end
$var reg 1 w a $end
$var reg 1 x b $end
$var reg 1 y sum $end
$var reg 1 z cout $end
$scope module g1 $end
$var reg 1 { a $end
$var reg 1 | b $end
$var reg 1 } c $end
$upscope $end
$scope module g2 $end
$var reg 1 !" a $end
$var reg 1 "" b $end
$var reg 1 #" c $end
$upscope $end
$upscope $end
$scope module or1 $end
$var reg 1 $" a $end
$var reg 1 %" b $end
$var reg 1 &" c $end
$upscope $end
$upscope $end
$scope module fa2 $end
$var reg 1 '" a $end
$var reg 1 (" b $end
$var reg 1 )" cin $end
$var reg 1 *" sum $end
$var reg 1 +" cout $end
$var reg 1 ," halftohalf $end
$var reg 1 -" halftoor1 $end
$var reg 1 ." halftoor2 $end
$scope module ha1 $end
$var reg 1 /" a $end
$var reg 1 0" b $end
$var reg 1 1" sum $end
$var reg 1 2" cout $end
$scope module g1 $end
$var reg 1 3" a $end
$var reg 1 4" b $end
$var reg 1 5" c $end
$upscope $end
$scope module g2 $end
$var reg 1 6" a $end
$var reg 1 7" b $end
$var reg 1 8" c $end
$upscope $end
$upscope $end
$scope module ha2 $end
$var reg 1 9" a $end
$var reg 1 :" b $end
$var reg 1 ;" sum $end
$var reg 1 <" cout $end
$scope module g1 $end
$var reg 1 =" a $end
$var reg 1 >" b $end
$var reg 1 ?" c $end
$upscope $end
$scope module g2 $end
$var reg 1 @" a $end
$var reg 1 A" b $end
$var reg 1 B" c $end
$upscope $end
$upscope $end
$scope module or1 $end
$var reg 1 C" a $end
$var reg 1 D" b $end
$var reg 1 E" c $end
$upscope $end
$upscope $end
$scope module fa3 $end
$var reg 1 F" a $end
$var reg 1 G" b $end
$var reg 1 H" cin $end
$var reg 1 I" sum $end
$var reg 1 J" cout $end
$var reg 1 K" halftohalf $end
$var reg 1 L" halftoor1 $end
$var reg 1 M" halftoor2 $end
$scope module ha1 $end
$var reg 1 N" a $end
$var reg 1 O" b $end
$var reg 1 P" sum $end
$var reg 1 Q" cout $end
$scope module g1 $end
$var reg 1 R" a $end
$var reg 1 S" b $end
$var reg 1 T" c $end
$upscope $end
$scope module g2 $end
$var reg 1 U" a $end
$var reg 1 V" b $end
$var reg 1 W" c $end
$upscope $end
$upscope $end
$scope module ha2 $end
$var reg 1 X" a $end
$var reg 1 Y" b $end
$var reg 1 Z" sum $end
$var reg 1 [" cout $end
$scope module g1 $end
$var reg 1 \" a $end
$var reg 1 ]" b $end
$var reg 1 ^" c $end
$upscope $end
$scope module g2 $end
$var reg 1 _" a $end
$var reg 1 `" b $end
$var reg 1 a" c $end
$upscope $end
$upscope $end
$scope module or1 $end
$var reg 1 b" a $end
$var reg 1 c" b $end
$var reg 1 d" c $end
$upscope $end
$upscope $end
$scope module fa4 $end
$var reg 1 e" a $end
$var reg 1 f" b $end
$var reg 1 g" cin $end
$var reg 1 h" sum $end
$var reg 1 i" cout $end
$var reg 1 j" halftohalf $end
$var reg 1 k" halftoor1 $end
$var reg 1 l" halftoor2 $end
$scope module ha1 $end
$var reg 1 m" a $end
$var reg 1 n" b $end
$var reg 1 o" sum $end
$var reg 1 p" cout $end
$scope module g1 $end
$var reg 1 q" a $end
$var reg 1 r" b $end
$var reg 1 s" c $end
$upscope $end
$scope module g2 $end
$var reg 1 t" a $end
$var reg 1 u" b $end
$var reg 1 v" c $end
$upscope $end
$upscope $end
$scope module ha2 $end
$var reg 1 w" a $end
$var reg 1 x" b $end
$var reg 1 y" sum $end
$var reg 1 z" cout $end
$scope module g1 $end
$var reg 1 {" a $end
$var reg 1 |" b $end
$var reg 1 }" c $end
$upscope $end
$scope module g2 $end
$var reg 1 !# a $end
$var reg 1 "# b $end
$var reg 1 ## c $end
$upscope $end
$upscope $end
$scope module or1 $end
$var reg 1 $# a $end
$var reg 1 %# b $end
$var reg 1 &# c $end
$upscope $end
$upscope $end
$scope module fa5 $end
$var reg 1 '# a $end
$var reg 1 (# b $end
$var reg 1 )# cin $end
$var reg 1 *# sum $end
$var reg 1 +# cout $end
$var reg 1 ,# halftohalf $end
$var reg 1 -# halftoor1 $end
$var reg 1 .# halftoor2 $end
$scope module ha1 $end
$var reg 1 /# a $end
$var reg 1 0# b $end
$var reg 1 1# sum $end
$var reg 1 2# cout $end
$scope module g1 $end
$var reg 1 3# a $end
$var reg 1 4# b $end
$var reg 1 5# c $end
$upscope $end
$scope module g2 $end
$var reg 1 6# a $end
$var reg 1 7# b $end
$var reg 1 8# c $end
$upscope $end
$upscope $end
$scope module ha2 $end
$var reg 1 9# a $end
$var reg 1 :# b $end
$var reg 1 ;# sum $end
$var reg 1 <# cout $end
$scope module g1 $end
$var reg 1 =# a $end
$var reg 1 ># b $end
$var reg 1 ?# c $end
$upscope $end
$scope module g2 $end
$var reg 1 @# a $end
$var reg 1 A# b $end
$var reg 1 B# c $end
$upscope $end
$upscope $end
$scope module or1 $end
$var reg 1 C# a $end
$var reg 1 D# b $end
$var reg 1 E# c $end
$upscope $end
$upscope $end
$scope module fa6 $end
$var reg 1 F# a $end
$var reg 1 G# b $end
$var reg 1 H# cin $end
$var reg 1 I# sum $end
$var reg 1 J# cout $end
$var reg 1 K# halftohalf $end
$var reg 1 L# halftoor1 $end
$var reg 1 M# halftoor2 $end
$scope module ha1 $end
$var reg 1 N# a $end
$var reg 1 O# b $end
$var reg 1 P# sum $end
$var reg 1 Q# cout $end
$scope module g1 $end
$var reg 1 R# a $end
$var reg 1 S# b $end
$var reg 1 T# c $end
$upscope $end
$scope module g2 $end
$var reg 1 U# a $end
$var reg 1 V# b $end
$var reg 1 W# c $end
$upscope $end
$upscope $end
$scope module ha2 $end
$var reg 1 X# a $end
$var reg 1 Y# b $end
$var reg 1 Z# sum $end
$var reg 1 [# cout $end
$scope module g1 $end
$var reg 1 \# a $end
$var reg 1 ]# b $end
$var reg 1 ^# c $end
$upscope $end
$scope module g2 $end
$var reg 1 _# a $end
$var reg 1 `# b $end
$var reg 1 a# c $end
$upscope $end
$upscope $end
$scope module or1 $end
$var reg 1 b# a $end
$var reg 1 c# b $end
$var reg 1 d# c $end
$upscope $end
$upscope $end
$scope module fa7 $end
$var reg 1 e# a $end
$var reg 1 f# b $end
$var reg 1 g# cin $end
$var reg 1 h# sum $end
$var reg 1 i# cout $end
$var reg 1 j# halftohalf $end
$var reg 1 k# halftoor1 $end
$var reg 1 l# halftoor2 $end
$scope module ha1 $end
$var reg 1 m# a $end
$var reg 1 n# b $end
$var reg 1 o# sum $end
$var reg 1 p# cout $end
$scope module g1 $end
$var reg 1 q# a $end
$var reg 1 r# b $end
$var reg 1 s# c $end
$upscope $end
$scope module g2 $end
$var reg 1 t# a $end
$var reg 1 u# b $end
$var reg 1 v# c $end
$upscope $end
$upscope $end
$scope module ha2 $end
$var reg 1 w# a $end
$var reg 1 x# b $end
$var reg 1 y# sum $end
$var reg 1 z# cout $end
$scope module g1 $end
$var reg 1 {# a $end
$var reg 1 |# b $end
$var reg 1 }# c $end
$upscope $end
$scope module g2 $end
$var reg 1 !$ a $end
$var reg 1 "$ b $end
$var reg 1 #$ c $end
$upscope $end
$upscope $end
$scope module or1 $end
$var reg 1 $$ a $end
$var reg 1 %$ b $end
$var reg 1 &$ c $end
$upscope $end
$upscope $end
$upscope $end
$enddefinitions $end
#0
b00000000 !
b00001010 "
b00001010 #
0$
0%
b0 &
b00000000 '
b00001010 (
0)
b00001010 *
0+
b0000000U ,
b00001010 -
0.
0/
00
11
02
13
04
05
06
17
08
19
0:
0;
0<
0=
0>
0?
0@
0A
0B
0C
0D
0E
0F
0G
0H
0I
0J
0K
0L
0M
0N
0O
0P
0Q
0R
0S
0T
0U
0V
0W
0X
0Y
0Z
0[
0\
0]
0^
0_
0`
0a
0b
0c
0d
0e
1f
0g
1h
0i
1j
0k
0l
0m
1n
1o
0p
0q
1r
1s
0t
1u
0v
1w
0x
1y
0z
1{
0|
1}
1!"
0""
0#"
0$"
0%"
0&"
0'"
0("
0)"
0*"
0+"
0,"
0-"
0."
0/"
00"
01"
02"
03"
04"
05"
06"
07"
08"
09"
0:"
0;"
0<"
0="
0>"
0?"
0@"
0A"
0B"
0C"
0D"
0E"
0F"
1G"
0H"
1I"
0J"
1K"
0L"
0M"
0N"
1O"
1P"
0Q"
0R"
1S"
1T"
0U"
1V"
0W"
1X"
0Y"
1Z"
0["
1\"
0]"
1^"
1_"
0`"
0a"
0b"
0c"
0d"
0e"
0f"
0g"
0h"
0i"
0j"
0k"
0l"
0m"
0n"
0o"
0p"
0q"
0r"
0s"
0t"
0u"
0v"
0w"
0x"
0y"
0z"
0{"
0|"
0}"
0!#
0"#
0##
0$#
0%#
0&#
0'#
0(#
0)#
0*#
0+#
0,#
0-#
0.#
0/#
00#
01#
02#
03#
04#
05#
06#
07#
08#
09#
0:#
0;#
0<#
0=#
0>#
0?#
0@#
0A#
0B#
0C#
0D#
0E#
0F#
0G#
0H#
0I#
0J#
0K#
0L#
0M#
0N#
0O#
0P#
0Q#
0R#
0S#
0T#
0U#
0V#
0W#
0X#
0Y#
0Z#
0[#
0\#
0]#
0^#
0_#
0`#
0a#
0b#
0c#
0d#
0e#
0f#
0g#
0h#
0i#
0j#
0k#
0l#
0m#
0n#
0o#
0p#
0q#
0r#
0s#
0t#
0u#
0v#
0w#
0x#
0y#
0z#
0{#
0|#
0}#
0!$
0"$
0#$
0$$
0%$
0&$
#10000000
#15000000
b00000001 !
b00001011 #
b00000001 '
b00001011 *
1F
1I
1K
1N
1P
1R
1T
1U
1X
1Z
1\
1^
1_
#25000000
#30000000
b00000010 !
b00001100 #
b00000010 '
b00001100 *
b0000010U ,
0F
0I
0K
0N
0P
0R
0T
0U
0X
0Z
0\
0^
0_
1e
0h
1i
0j
1k
1m
0o
1p
1q
0s
1t
1v
0w
0y
0{
0}
0!"
1$"
1&"
1)"
1*"
1:"
1;"
1>"
1?"
1A"
#40000000
#45000000
b00000011 !
b00001101 #
b00000011 '
b00001101 *
1F
1I
1K
1N
1P
1R
1T
1U
1X
1Z
1\
1^
1_
#55000000
#60000000
b00000100 !
b00001110 #
b00000100 '
b00001110 *
b0000000U ,
0F
0I
0K
0N
0P
0R
0T
0U
0X
0Z
0\
0^
0_
0e
1h
0i
1j
0k
0m
1o
0p
0q
1s
0t
0v
1w
1y
1{
1}
1!"
0$"
0&"
1'"
0)"
1*"
0+"
1,"
0."
1/"
11"
13"
15"
16"
19"
0:"
1;"
0<"
1="
0>"
1?"
1@"
0A"
0B"
0D"
0E"
0H"
1I"
0J"
0M"
0Y"
1Z"
0["
0]"
1^"
0`"
0a"
0c"
0d"
0g"
0h"
0x"
0y"
0|"
0}"
0"#
#70000000
#75000000
b00000101 !
b00001111 #
b00000101 '
b00001111 *
1F
1I
1K
1N
1P
1R
1T
1U
1X
1Z
1\
1^
1_
#85000000
#90000000
b00000110 !
b00010000 #
b00000110 '
b00010000 *
b0001110U ,
0F
0I
0K
0N
0P
0R
0T
0U
0X
0Z
0\
0^
0_
1e
0h
1i
0j
1k
1m
0o
1p
1q
0s
1t
1v
0w
0y
0{
0}
0!"
1$"
1&"
1)"
0*"
1+"
1."
1:"
0;"
1<"
1>"
0?"
1A"
1B"
1D"
1E"
1H"
0I"
1J"
1M"
1Y"
0Z"
1["
1]"
0^"
1`"
1a"
1c"
1d"
1g"
1h"
1x"
1y"
1|"
1}"
1"#
#100000000
#105000000
b00000111 !
b00010001 #
b00000111 '
b00010001 *
1F
1I
1K
1N
1P
1R
1T
1U
1X
1Z
1\
1^
1_
#115000000
#120000000
b00001000 !
b00010010 #
b00001000 '
b00010010 *
b0001000U ,
0F
0I
0K
0N
0P
0R
0T
0U
0X
0Z
0\
0^
0_
0e
1h
0i
1j
0k
0m
1o
0p
0q
1s
0t
0v
1w
1y
1{
1}
1!"
0$"
0&"
0'"
0)"
0*"
0+"
0,"
0."
0/"
01"
03"
05"
06"
09"
0:"
0;"
0<"
0="
0>"
0?"
0@"
0A"
0B"
0D"
0E"
1F"
0H"
0I"
0K"
1L"
0M"
1N"
0P"
1Q"
1R"
0T"
1U"
1W"
0X"
0Y"
0Z"
0["
0\"
0]"
0^"
0_"
0`"
0a"
1b"
0c"
#130000000
#135000000
b00001001 !
b00010011 #
b00001001 '
b00010011 *
1F
1I
1K
1N
1P
1R
1T
1U
1X
1Z
1\
1^
1_
#145000000
#150000000
b00001010 !
b00010100 #
b00001010 '
b00010100 *
b0001010U ,
0F
0I
0K
0N
0P
0R
0T
0U
0X
0Z
0\
0^
0_
1e
0h
1i
0j
1k
1m
0o
1p
1q
0s
1t
1v
0w
0y
0{
0}
0!"
1$"
1&"
1)"
1*"
1:"
1;"
1>"
1?"
1A"
#160000000
#165000000
b00001011 !
b00010101 #
b00001011 '
b00010101 *
1F
1I
1K
1N
1P
1R
1T
1U
1X
1Z
1\
1^
1_
#175000000
#180000000
b00001100 !
b00010110 #
b00001100 '
b00010110 *
b0001000U ,
0F
0I
0K
0N
0P
0R
0T
0U
0X
0Z
0\
0^
0_
0e
1h
0i
1j
0k
0m
1o
0p
0q
1s
0t
0v
1w
1y
1{
1}
1!"
0$"
0&"
1'"
0)"
1*"
0+"
1,"
0."
1/"
11"
13"
15"
16"
19"
0:"
1;"
0<"
1="
0>"
1?"
1@"
0A"
0B"
0D"
0E"
0H"
0I"
0Y"
0Z"
0]"
0^"
0`"
#190000000
#195000000
b00001101 !
b00010111 #
b00001101 '
b00010111 *
1F
1I
1K
1N
1P
1R
1T
1U
1X
1Z
1\
1^
1_
#205000000
#210000000
b00001110 !
b00011000 #
b00001110 '
b00011000 *
b0001110U ,
0F
0I
0K
0N
0P
0R
0T
0U
0X
0Z
0\
0^
0_
1e
0h
1i
0j
1k
1m
0o
1p
1q
0s
1t
1v
0w
0y
0{
0}
0!"
1$"
1&"
1)"
0*"
1+"
1."
1:"
0;"
1<"
1>"
0?"
1A"
1B"
1D"
1E"
1H"
1I"
1Y"
1Z"
1]"
1^"
1`"
#220000000
#225000000
b00001111 !
b00011001 #
b00001111 '
b00011001 *
1F
1I
1K
1N
1P
1R
1T
1U
1X
1Z
1\
1^
1_
#235000000
#240000000
b00010000 !
b00011010 #
b00010000 '
b00011010 *
b0000000U ,
0F
0I
0K
0N
0P
0R
0T
0U
0X
0Z
0\
0^
0_
0e
1h
0i
1j
0k
0m
1o
0p
0q
1s
0t
0v
1w
1y
1{
1}
1!"
0$"
0&"
0'"
0)"
0*"
0+"
0,"
0."
0/"
01"
03"
05"
06"
09"
0:"
0;"
0<"
0="
0>"
0?"
0@"
0A"
0B"
0D"
0E"
0F"
0H"
1I"
0J"
1K"
0L"
0M"
0N"
1P"
0Q"
0R"
1T"
0U"
0W"
1X"
0Y"
1Z"
0["
1\"
0]"
1^"
1_"
0`"
0a"
0b"
0c"
0d"
1e"
0g"
1h"
0i"
1j"
0l"
1m"
1o"
1q"
1s"
1t"
1w"
0x"
1y"
0z"
1{"
0|"
1}"
1!#
0"#
0##
0%#
0&#
0)#
0*#
0:#
0;#
0>#
0?#
0A#
#250000000
#255000000
b00010001 !
b00011011 #
b00010001 '
b00011011 *
1F
1I
1K
1N
1P
1R
1T
1U
1X
1Z
1\
1^
1_
#265000000
#270000000
b00010010 !
b00011100 #
b00010010 '
b00011100 *
b0000010U ,
0F
0I
0K
0N
0P
0R
0T
0U
0X
0Z
0\
0^
0_
1e
0h
1i
0j
1k
1m
0o
1p
1q
0s
1t
1v
0w
0y
0{
0}
0!"
1$"
1&"
1)"
1*"
1:"
1;"
1>"
1?"
1A"
#280000000
#285000000
b00010011 !
b00011101 #
b00010011 '
b00011101 *
1F
1I
1K
1N
1P
1R
1T
1U
1X
1Z
1\
1^
1_
#295000000
#300000000
b00010100 !
b00011110 #
b00010100 '
b00011110 *
b0000000U ,
0F
0I
0K
0N
0P
0R
0T
0U
0X
0Z
0\
0^
0_
0e
1h
0i
1j
0k
0m
1o
0p
0q
1s
0t
0v
1w
1y
1{
1}
1!"
0$"
0&"
1'"
0)"
1*"
0+"
1,"
0."
1/"
11"
13"
15"
16"
19"
0:"
1;"
0<"
1="
0>"
1?"
1@"
0A"
0B"
0D"
0E"
0H"
1I"
0J"
0M"
0Y"
1Z"
0["
0]"
1^"
0`"
0a"
0c"
0d"
0g"
1h"
0i"
0l"
0x"
1y"
0z"
0|"
1}"
0"#
0##
0%#
0&#
0)#
0*#
0:#
0;#
0>#
0?#
0A#
#310000000
#315000000
b00010101 !
b00011111 #
b00010101 '
b00011111 *
1F
1I
1K
1N
1P
1R
1T
1U
1X
1Z
1\
1^
1_
#325000000
#330000000
b00010110 !
b00100000 #
b00010110 '
b00100000 *
b0011110U ,
0F
0I
0K
0N
0P
0R
0T
0U
0X
0Z
0\
0^
0_
1e
0h
1i
0j
1k
1m
0o
1p
1q
0s
1t
1v
0w
0y
0{
0}
0!"
1$"
1&"
1)"
0*"
1+"
1."
1:"
0;"
1<"
1>"
0?"
1A"
1B"
1D"
1E"
1H"
0I"
1J"
1M"
1Y"
0Z"
1["
1]"
0^"
1`"
1a"
1c"
1d"
1g"
0h"
1i"
1l"
1x"
0y"
1z"
1|"
0}"
1"#
1##
1%#
1&#
1)#
1*#
1:#
1;#
1>#
1?#
1A#
#340000000
#345000000
b00010111 !
b00100001 #
b00010111 '
b00100001 *
1F
1I
1K
1N
1P
1R
1T
1U
1X
1Z
1\
1^
1_
#355000000
#360000000
b00011000 !
b00100010 #
b00011000 '
b00100010 *
b0011000U ,
0F
0I
0K
0N
0P
0R
0T
0U
0X
0Z
0\
0^
0_
0e
1h
0i
1j
0k
0m
1o
0p
0q
1s
0t
0v
1w
1y
1{
1}
1!"
0$"
0&"
0'"
0)"
0*"
0+"
0,"
0."
0/"
01"
03"
05"
06"
09"
0:"
0;"
0<"
0="
0>"
0?"
0@"
0A"
0B"
0D"
0E"
1F"
0H"
0I"
0K"
1L"
0M"
1N"
0P"
1Q"
1R"
0T"
1U"
1W"
0X"
0Y"
0Z"
0["
0\"
0]"
0^"
0_"
0`"
0a"
1b"
0c"
#370000000
#375000000
b00011001 !
b00100011 #
b00011001 '
b00100011 *
1F
1I
1K
1N
1P
1R
1T
1U
1X
1Z
1\
1^
1_
#385000000
#390000000
b00011010 !
b00100100 #
b00011010 '
b00100100 *
b0011010U ,
0F
0I
0K
0N
0P
0R
0T
0U
0X
0Z
0\
0^
0_
1e
0h
1i
0j
1k
1m
0o
1p
1q
0s
1t
1v
0w
0y
0{
0}
0!"
1$"
1&"
1)"
1*"
1:"
1;"
1>"
1?"
1A"
#400000000
#405000000
b00011011 !
b00100101 #
b00011011 '
b00100101 *
1F
1I
1K
1N
1P
1R
1T
1U
1X
1Z
1\
1^
1_
#415000000
#420000000
b00011100 !
b00100110 #
b00011100 '
b00100110 *
b0011000U ,
0F
0I
0K
0N
0P
0R
0T
0U
0X
0Z
0\
0^
0_
0e
1h
0i
1j
0k
0m
1o
0p
0q
1s
0t
0v
1w
1y
1{
1}
1!"
0$"
0&"
1'"
0)"
1*"
0+"
1,"
0."
1/"
11"
13"
15"
16"
19"
0:"
1;"
0<"
1="
0>"
1?"
1@"
0A"
0B"
0D"
0E"
0H"
0I"
0Y"
0Z"
0]"
0^"
0`"
#430000000
#435000000
b00011101 !
b00100111 #
b00011101 '
b00100111 *
1F
1I
1K
1N
1P
1R
1T
1U
1X
1Z
1\
1^
1_
#445000000
#450000000
b00011110 !
b00101000 #
b00011110 '
b00101000 *
b0011110U ,
0F
0I
0K
0N
0P
0R
0T
0U
0X
0Z
0\
0^
0_
1e
0h
1i
0j
1k
1m
0o
1p
1q
0s
1t
1v
0w
0y
0{
0}
0!"
1$"
1&"
1)"
0*"
1+"
1."
1:"
0;"
1<"
1>"
0?"
1A"
1B"
1D"
1E"
1H"
1I"
1Y"
1Z"
1]"
1^"
1`"
#460000000
#465000000
b00011111 !
b00101001 #
b00011111 '
b00101001 *
1F
1I
1K
1N
1P
1R
1T
1U
1X
1Z
1\
1^
1_
#475000000
#480000000
b00100000 !
b00101010 #
b00100000 '
b00101010 *
b0000000U ,
0F
0I
0K
0N
0P
0R
0T
0U
0X
0Z
0\
0^
0_
0e
1h
0i
1j
0k
0m
1o
0p
0q
1s
0t
0v
1w
1y
1{
1}
1!"
0$"
0&"
0'"
0)"
0*"
0+"
0,"
0."
0/"
01"
03"
05"
06"
09"
0:"
0;"
0<"
0="
0>"
0?"
0@"
0A"
0B"
0D"
0E"
0F"
0H"
1I"
0J"
1K"
0L"
0M"
0N"
1P"
0Q"
0R"
1T"
0U"
0W"
1X"
0Y"
1Z"
0["
1\"
0]"
1^"
1_"
0`"
0a"
0b"
0c"
0d"
0e"
0g"
0h"
0i"
0j"
0l"
0m"
0o"
0q"
0s"
0t"
0w"
0x"
0y"
0z"
0{"
0|"
0}"
0!#
0"#
0##
0%#
0&#
1'#
0)#
1*#
0+#
1,#
0.#
1/#
11#
13#
15#
16#
19#
0:#
1;#
0<#
1=#
0>#
1?#
1@#
0A#
0B#
0D#
0E#
0H#
0I#
0Y#
0Z#
0]#
0^#
0`#
#490000000
#495000000
b00100001 !
b00101011 #
b00100001 '
b00101011 *
1F
1I
1K
1N
1P
1R
1T
1U
1X
1Z
1\
1^
1_
#505000000
#510000000
b00100010 !
b00101100 #
b00100010 '
b00101100 *
b0000010U ,
0F
0I
0K
0N
0P
0R
0T
0U
0X
0Z
0\
0^
0_
1e
0h
1i
0j
1k
1m
0o
1p
1q
0s
1t
1v
0w
0y
0{
0}
0!"
1$"
1&"
1)"
1*"
1:"
1;"
1>"
1?"
1A"
#520000000
#525000000
b00100011 !
b00101101 #
b00100011 '
b00101101 *
1F
1I
1K
1N
1P
1R
1T
1U
1X
1Z
1\
1^
1_
#535000000
#540000000
b00100100 !
b00101110 #
b00100100 '
b00101110 *
b0000000U ,
0F
0I
0K
0N
0P
0R
0T
0U
0X
0Z
0\
0^
0_
0e
1h
0i
1j
0k
0m
1o
0p
0q
1s
0t
0v
1w
1y
1{
1}
1!"
0$"
0&"
1'"
0)"
1*"
0+"
1,"
0."
1/"
11"
13"
15"
16"
19"
0:"
1;"
0<"
1="
0>"
1?"
1@"
0A"
0B"
0D"
0E"
0H"
1I"
0J"
0M"
0Y"
1Z"
0["
0]"
1^"
0`"
0a"
0c"
0d"
0g"
0h"
0x"
0y"
0|"
0}"
0"#
#550000000
#555000000
b00100101 !
b00101111 #
b00100101 '
b00101111 *
1F
1I
1K
1N
1P
1R
1T
1U
1X
1Z
1\
1^
1_
#565000000
#570000000
b00100110 !
b00110000 #
b00100110 '
b00110000 *
b0001110U ,
0F
0I
0K
0N
0P
0R
0T
0U
0X
0Z
0\
0^
0_
1e
0h
1i
0j
1k
1m
0o
1p
1q
0s
1t
1v
0w
0y
0{
0}
0!"
1$"
1&"
1)"
0*"
1+"
1."
1:"
0;"
1<"
1>"
0?"
1A"
1B"
1D"
1E"
1H"
0I"
1J"
1M"
1Y"
0Z"
1["
1]"
0^"
1`"
1a"
1c"
1d"
1g"
1h"
1x"
1y"
1|"
1}"
1"#
#580000000
#585000000
b00100111 !
b00110001 #
b00100111 '
b00110001 *
1F
1I
1K
1N
1P
1R
1T
1U
1X
1Z
1\
1^
1_
#595000000
#600000000
b00101000 !
b00110010 #
b00101000 '
b00110010 *
b0001000U ,
0F
0I
0K
0N
0P
0R
0T
0U
0X
0Z
0\
0^
0_
0e
1h
0i
1j
0k
0m
1o
0p
0q
1s
0t
0v
1w
1y
1{
1}
1!"
0$"
0&"
0'"
0)"
0*"
0+"
0,"
0."
0/"
01"
03"
05"
06"
09"
0:"
0;"
0<"
0="
0>"
0?"
0@"
0A"
0B"
0D"
0E"
1F"
0H"
0I"
0K"
1L"
0M"
1N"
0P"
1Q"
1R"
0T"
1U"
1W"
0X"
0Y"
0Z"
0["
0\"
0]"
0^"
0_"
0`"
0a"
1b"
0c"
#610000000
#615000000
b00101001 !
b00110011 #
b00101001 '
b00110011 *
1F
1I
1K
1N
1P
1R
1T
1U
1X
1Z
1\
1^
1_
#625000000
#630000000
b00101010 !
b00110100 #
b00101010 '
b00110100 *
b0001010U ,
0F
0I
0K
0N
0P
0R
0T
0U
0X
0Z
0\
0^
0_
1e
0h
1i
0j
1k
1m
0o
1p
1q
0s
1t
1v
0w
0y
0{
0}
0!"
1$"
1&"
1)"
1*"
1:"
1;"
1>"
1?"
1A"
#640000000
#645000000
b00101011 !
b00110101 #
b00101011 '
b00110101 *
1F
1I
1K
1N
1P
1R
1T
1U
1X
1Z
1\
1^
1_
#655000000
#660000000
b00101100 !
b00110110 #
b00101100 '
b00110110 *
b0001000U ,
0F
0I
0K
0N
0P
0R
0T
0U
0X
0Z
0\
0^
0_
0e
1h
0i
1j
0k
0m
1o
0p
0q
1s
0t
0v
1w
1y
1{
1}
1!"
0$"
0&"
1'"
0)"
1*"
0+"
1,"
0."
1/"
11"
13"
15"
16"
19"
0:"
1;"
0<"
1="
0>"
1?"
1@"
0A"
0B"
0D"
0E"
0H"
0I"
0Y"
0Z"
0]"
0^"
0`"
#670000000
#675000000
b00101101 !
b00110111 #
b00101101 '
b00110111 *
1F
1I
1K
1N
1P
1R
1T
1U
1X
1Z
1\
1^
1_
#685000000
#690000000
b00101110 !
b00111000 #
b00101110 '
b00111000 *
b0001110U ,
0F
0I
0K
0N
0P
0R
0T
0U
0X
0Z
0\
0^
0_
1e
0h
1i
0j
1k
1m
0o
1p
1q
0s
1t
1v
0w
0y
0{
0}
0!"
1$"
1&"
1)"
0*"
1+"
1."
1:"
0;"
1<"
1>"
0?"
1A"
1B"
1D"
1E"
1H"
1I"
1Y"
1Z"
1]"
1^"
1`"
#700000000
#705000000
b00101111 !
b00111001 #
b00101111 '
b00111001 *
1F
1I
1K
1N
1P
1R
1T
1U
1X
1Z
1\
1^
1_
#715000000
