lab1_workingfolder/fullAdder-2bit/fulladder.vcd
$date
  Wed Jan 20 23:42:33 2016
$end
$version
  GHDL v0
$end
$timescale
  1 fs
$end
$var reg 1 ! a $end
$var reg 1 " b $end
$var reg 1 # cin $end
$var reg 1 $ sum $end
$var reg 1 % cout $end
$scope module mapping $end
$var reg 1 & a $end
$var reg 1 ' b $end
$var reg 1 ( cin $end
$var reg 1 ) sum $end
$var reg 1 * cout $end
$var reg 1 + halftohalf $end
$var reg 1 , halftoor1 $end
$var reg 1 - halftoor2 $end
$scope module g1 $end
$var reg 1 . a $end
$var reg 1 / b $end
$var reg 1 0 sum $end
$var reg 1 1 cout $end
$scope module g1 $end
$var reg 1 2 a $end
$var reg 1 3 b $end
$var reg 1 4 c $end
$upscope $end
$scope module g2 $end
$var reg 1 5 a $end
$var reg 1 6 b $end
$var reg 1 7 c $end
$upscope $end
$upscope $end
$scope module g2 $end
$var reg 1 8 a $end
$var reg 1 9 b $end
$var reg 1 : sum $end
$var reg 1 ; cout $end
$scope module g1 $end
$var reg 1 < a $end
$var reg 1 = b $end
$var reg 1 > c $end
$upscope $end
$scope module g2 $end
$var reg 1 ? a $end
$var reg 1 @ b $end
$var reg 1 A c $end
$upscope $end
$upscope $end
$scope module g3 $end
$var reg 1 B a $end
$var reg 1 C b $end
$var reg 1 D c $end
$upscope $end
$upscope $end
$enddefinitions $end
#0
0!
0"
0#
0$
0%
0&
0'
0(
0)
0*
0+
0,
0-
0.
0/
00
01
02
03
04
05
06
07
08
09
0:
0;
0<
0=
0>
0?
0@
0A
0B
0C
0D
#10000000
1#
1$
1(
1)
19
1:
1=
1>
1@
#20000000
1"
0#
1$
1'
0(
1)
1+
1/
10
13
14
16
18
09
1:
1<
0=
1>
1?
0@
#30000000
1#
0$
1%
1(
0)
1*
1-
19
0:
1;
1=
0>
1@
1A
1C
1D
#40000000
1!
0"
0#
1$
0%
1&
0'
0(
1)
0*
0-
1.
0/
12
03
15
06
09
1:
0;
0=
1>
0@
0A
0C
0D
#50000000
1#
0$
1%
1(
0)
1*
1-
19
0:
1;
1=
0>
1@
1A
1C
1D
#60000000
1"
0#
0$
1'
0(
0)
0+
1,
0-
1/
00
11
13
04
16
17
08
09
0:
0;
0<
0=
0>
0?
0@
0A
1B
0C
#70000000
1#
1$
1(
1)
19
1:
1=
1>
1@
