myand/myand.vcd
$date
  Wed Jan 20 03:22:50 2016
$end
$version
  GHDL v0
$end
$timescale
  1 fs
$end
$var reg 1 ! ina $end
$var reg 1 " inb $end
$var reg 1 # outf $end
$scope module mapping $end
$var reg 1 $ in1 $end
$var reg 1 % in2 $end
$var reg 1 & out1 $end
$upscope $end
$enddefinitions $end
#0
0!
0"
0#
0$
0%
0&
#15000000
1"
1%
#30000000
1!
0"
1$
0%
#45000000
1"
1#
1%
1&
#60000000
0!
0"
0#
0$
0%
0&
#75000000
1"
1%
#90000000
1!
0"
1$
0%
#105000000
1"
1#
1%
1&
#120000000
0!
0"
0#
0$
0%
0&
#135000000
1"
1%
#150000000
1!
0"
1$
0%
#165000000
1"
1#
1%
1&
#180000000
0!
0"
0#
0$
0%
0&
#195000000
1"
1%
#210000000
1!
0"
1$
0%
#225000000
1"
1#
1%
1&
#240000000
0!
0"
0#
0$
0%
0&
#255000000
1"
1%
#270000000
1!
0"
1$
0%
#285000000
1"
1#
1%
1&
#300000000
0!
0"
0#
0$
0%
0&
#315000000
1"
1%
#330000000
1!
0"
1$
0%
#345000000
1"
1#
1%
1&
#360000000
0!
0"
0#
0$
0%
0&
#375000000
1"
1%
#390000000
1!
0"
1$
0%
#405000000
1"
1#
1%
1&
#420000000
0!
0"
0#
0$
0%
0&
#435000000
1"
1%
#450000000
1!
0"
1$
0%
#465000000
1"
1#
1%
1&
#480000000
0!
0"
0#
0$
0%
0&
#495000000
1"
1%
#510000000
1!
0"
1$
0%
#525000000
1"
1#
1%
1&
#540000000
0!
0"
0#
0$
0%
0&
#555000000
1"
1%
#570000000
1!
0"
1$
0%
#585000000
1"
1#
1%
1&
#600000000
0!
0"
0#
0$
0%
0&
#615000000
1"
1%
#630000000
1!
0"
1$
0%
#645000000
1"
1#
1%
1&
#660000000
0!
0"
0#
0$
0%
0&
#675000000
1"
1%
#690000000
1!
0"
1$
0%
#705000000
1"
1#
1%
1&
#720000000
0!
0"
0#
0$
0%
0&
#735000000
1"
1%
#750000000
1!
0"
1$
0%
#765000000
1"
1#
1%
1&
#780000000
0!
0"
0#
0$
0%
0&
#795000000
1"
1%
#810000000
1!
0"
1$
0%
#825000000
1"
1#
1%
1&
#840000000
0!
0"
0#
0$
0%
0&
#855000000
1"
1%
#870000000
1!
0"
1$
0%
#885000000
1"
1#
1%
1&
#900000000
0!
0"
0#
0$
0%
0&
#915000000
1"
1%
#930000000
1!
0"
1$
0%
#945000000
1"
1#
1%
1&
#960000000
0!
0"
0#
0$
0%
0&
#975000000
1"
1%
#990000000
1!
0"
1$
0%
#1005000000
1"
1#
1%
1&
#1020000000
0!
0"
0#
0$
0%
0&
#1035000000
1"
1%
#1050000000
1!
0"
1$
0%
#1065000000
1"
1#
1%
1&
#1080000000
0!
0"
0#
0$
0%
0&
#1095000000
1"
1%
#1110000000
1!
0"
1$
0%
#1125000000
1"
1#
1%
1&
#1140000000
0!
0"
0#
0$
0%
0&
#1155000000
1"
1%
#1170000000
1!
0"
1$
0%
#1185000000
1"
1#
1%
1&
#1200000000
0!
0"
0#
0$
0%
0&
#1215000000
1"
1%
#1230000000
1!
0"
1$
0%
#1245000000
1"
1#
1%
1&
#1260000000
0!
0"
0#
0$
0%
0&
#1275000000
1"
1%
#1290000000
1!
0"
1$
0%
#1305000000
1"
1#
1%
1&
#1320000000
0!
0"
0#
0$
0%
0&
#1335000000
1"
1%
#1350000000
1!
0"
1$
0%
#1365000000
1"
1#
1%
1&
#1380000000
0!
0"
0#
0$
0%
0&
#1395000000
1"
1%
#1410000000
1!
0"
1$
0%
#1425000000
1"
1#
1%
1&
#1440000000
0!
0"
0#
0$
0%
0&
#1455000000
1"
1%
#1470000000
1!
0"
1$
0%
#1485000000
1"
1#
1%
1&
#1500000000
0!
0"
0#
0$
0%
0&
#1515000000
1"
1%
#1530000000
1!
0"
1$
0%
#1545000000
1"
1#
1%
1&
#1560000000
0!
0"
0#
0$
0%
0&
#1575000000
1"
1%
#1590000000
1!
0"
1$
0%
#1605000000
1"
1#
1%
1&
#1620000000
0!
0"
0#
0$
0%
0&
#1635000000
1"
1%
#1650000000
1!
0"
1$
0%
#1665000000
1"
1#
1%
1&
#1680000000
0!
0"
0#
0$
0%
0&
#1695000000
1"
1%
#1710000000
1!
0"
1$
0%
#1725000000
1"
1#
1%
1&
#1740000000
0!
0"
0#
0$
0%
0&
#1755000000
1"
1%
#1770000000
1!
0"
1$
0%
#1785000000
1"
1#
1%
1&
#1800000000
0!
0"
0#
0$
0%
0&
#1815000000
1"
1%
#1830000000
1!
0"
1$
0%
#1845000000
1"
1#
1%
1&
#1860000000
0!
0"
0#
0$
0%
0&
#1875000000
1"
1%
#1890000000
1!
0"
1$
0%
#1905000000
1"
1#
1%
1&
#1920000000
0!
0"
0#
0$
0%
0&
#1935000000
1"
1%
#1950000000
1!
0"
1$
0%
#1965000000
1"
1#
1%
1&
#1980000000
0!
0"
0#
0$
0%
0&
#1995000000
1"
1%
#2010000000
1!
0"
1$
0%
#2025000000
1"
1#
1%
1&
#2040000000
0!
0"
0#
0$
0%
0&
#2055000000
1"
1%
#2070000000
1!
0"
1$
0%
#2085000000
1"
1#
1%
1&
#2100000000
0!
0"
0#
0$
0%
0&
#2115000000
1"
1%
#2130000000
1!
0"
1$
0%
#2145000000
1"
1#
1%
1&
#2160000000
0!
0"
0#
0$
0%
0&
#2175000000
1"
1%
#2190000000
1!
0"
1$
0%
#2205000000
1"
1#
1%
1&
#2220000000
0!
0"
0#
0$
0%
0&
#2235000000
1"
1%
#2250000000
1!
0"
1$
0%
#2265000000
1"
1#
1%
1&
#2280000000
0!
0"
0#
0$
0%
0&
#2295000000
1"
1%
#2310000000
1!
0"
1$
0%
#2325000000
1"
1#
1%
1&
#2340000000
0!
0"
0#
0$
0%
0&
#2355000000
1"
1%
#2370000000
1!
0"
1$
0%
#2385000000
1"
1#
1%
1&
#2400000000
0!
0"
0#
0$
0%
0&
#2415000000
1"
1%
#2430000000
1!
0"
1$
0%
#2445000000
1"
1#
1%
1&
#2460000000
0!
0"
0#
0$
0%
0&
#2475000000
1"
1%
#2490000000
1!
0"
1$
0%
#2505000000
1"
1#
1%
1&
#2520000000
0!
0"
0#
0$
0%
0&
#2535000000
1"
1%
#2550000000
1!
0"
1$
0%
#2565000000
1"
1#
1%
1&
#2580000000
0!
0"
0#
0$
0%
0&
#2595000000
1"
1%
#2610000000
1!
0"
1$
0%
#2625000000
1"
1#
1%
1&
#2640000000
0!
0"
0#
0$
0%
0&
#2655000000
1"
1%
#2670000000
1!
0"
1$
0%
#2685000000
1"
1#
1%
1&
#2700000000
0!
0"
0#
0$
0%
0&
#2715000000
1"
1%
#2730000000
1!
0"
1$
0%
#2745000000
1"
1#
1%
1&
#2760000000
0!
0"
0#
0$
0%
0&
#2775000000
1"
1%
#2790000000
1!
0"
1$
0%
#2805000000
1"
1#
1%
1&
#2820000000
0!
0"
0#
0$
0%
0&
#2835000000
1"
1%
#2850000000
1!
0"
1$
0%
#2865000000
1"
1#
1%
1&
#2880000000
0!
0"
0#
0$
0%
0&
#2895000000
1"
1%
#2910000000
1!
0"
1$
0%
#2925000000
1"
1#
1%
1&
#2940000000
0!
0"
0#
0$
0%
0&
#2955000000
1"
1%
#2970000000
1!
0"
1$
0%
#2985000000
1"
1#
1%
1&
#3000000000
0!
0"
0#
0$
0%
0&
#3015000000
1"
1%
#3030000000
1!
0"
1$
0%
#3045000000
1"
1#
1%
1&
#3060000000
0!
0"
0#
0$
0%
0&
#3075000000
1"
1%
#3090000000
1!
0"
1$
0%
#3105000000
1"
1#
1%
1&
#3120000000
0!
0"
0#
0$
0%
0&
#3135000000
1"
1%
#3150000000
1!
0"
1$
0%
#3165000000
1"
1#
1%
1&
#3180000000
0!
0"
0#
0$
0%
0&
#3195000000
1"
1%
#3210000000
1!
0"
1$
0%
#3225000000
1"
1#
1%
1&
#3240000000
0!
0"
0#
0$
0%
0&
#3255000000
1"
1%
#3270000000
1!
0"
1$
0%
#3285000000
1"
1#
1%
1&
#3300000000
0!
0"
0#
0$
0%
0&
#3315000000
1"
1%
#3330000000
1!
0"
1$
0%
#3345000000
1"
1#
1%
1&
#3360000000
0!
0"
0#
0$
0%
0&
#3375000000
1"
1%
#3390000000
1!
0"
1$
0%
#3405000000
1"
1#
1%
1&
#3420000000
0!
0"
0#
0$
0%
0&
#3435000000
1"
1%
#3450000000
1!
0"
1$
0%
#3465000000
1"
1#
1%
1&
#3480000000
0!
0"
0#
0$
0%
0&
#3495000000
1"
1%
#3510000000
1!
0"
1$
0%
#3525000000
1"
1#
1%
1&
#3540000000
0!
0"
0#
0$
0%
0&
#3555000000
1"
1%
#3570000000
1!
0"
1$
0%
#3585000000
1"
1#
1%
1&
#3600000000
0!
0"
0#
0$
0%
0&
#3615000000
1"
1%
#3630000000
1!
0"
1$
0%
#3645000000
1"
1#
1%
1&
#3660000000
0!
0"
0#
0$
0%
0&
#3675000000
1"
1%
#3690000000
1!
0"
1$
0%
#3705000000
1"
1#
1%
1&
#3720000000
0!
0"
0#
0$
0%
0&
#3735000000
1"
1%
#3750000000
1!
0"
1$
0%
#3765000000
1"
1#
1%
1&
#3780000000
0!
0"
0#
0$
0%
0&
#3795000000
1"
1%
#3810000000
1!
0"
1$
0%
#3825000000
1"
1#
1%
1&
#3840000000
0!
0"
0#
0$
0%
0&
#3855000000
1"
1%
#3870000000
1!
0"
1$
0%
#3885000000
1"
1#
1%
1&
#3900000000
0!
0"
0#
0$
0%
0&
#3915000000
1"
1%
#3930000000
1!
0"
1$
0%
#3945000000
1"
1#
1%
1&
#3960000000
0!
0"
0#
0$
0%
0&
#3975000000
1"
1%
#3990000000
1!
0"
1$
0%
#4005000000
1"
1#
1%
1&
#4020000000
0!
0"
0#
0$
0%
0&
#4035000000
1"
1%
#4050000000
1!
0"
1$
0%
#4065000000
1"
1#
1%
1&
#4080000000
0!
0"
0#
0$
0%
0&
#4095000000
1"
1%
#4110000000
1!
0"
1$
0%
#4125000000
1"
1#
1%
1&
#4140000000
0!
0"
0#
0$
0%
0&
#4155000000
1"
1%
#4170000000
1!
0"
1$
0%
#4185000000
1"
1#
1%
1&
#4200000000
0!
0"
0#
0$
0%
0&
#4215000000
1"
1%
#4230000000
1!
0"
1$
0%
#4245000000
1"
1#
1%
1&
#4260000000
0!
0"
0#
0$
0%
0&
#4275000000
1"
1%
#4290000000
1!
0"
1$
0%
#4305000000
1"
1#
1%
1&
#4320000000
0!
0"
0#
0$
0%
0&
#4335000000
1"
1%
#4350000000
1!
0"
1$
0%
#4365000000
1"
1#
1%
1&
#4380000000
0!
0"
0#
0$
0%
0&
#4395000000
1"
1%
#4410000000
1!
0"
1$
0%
#4425000000
1"
1#
1%
1&
#4440000000
0!
0"
0#
0$
0%
0&
#4455000000
1"
1%
#4470000000
1!
0"
1$
0%
#4485000000
1"
1#
1%
1&
#4500000000
0!
0"
0#
0$
0%
0&
#4515000000
1"
1%
#4530000000
1!
0"
1$
0%
#4545000000
1"
1#
1%
1&
#4560000000
0!
0"
0#
0$
0%
0&
#4575000000
1"
1%
#4590000000
1!
0"
1$
0%
#4605000000
1"
1#
1%
1&
#4620000000
0!
0"
0#
0$
0%
0&
#4635000000
1"
1%
#4650000000
1!
0"
1$
0%
#4665000000
1"
1#
1%
1&
#4680000000
0!
0"
0#
0$
0%
0&
#4695000000
1"
1%
#4710000000
1!
0"
1$
0%
#4725000000
1"
1#
1%
1&
#4740000000
0!
0"
0#
0$
0%
0&
#4755000000
1"
1%
#4770000000
1!
0"
1$
0%
#4785000000
1"
1#
1%
1&
#4800000000
0!
0"
0#
0$
0%
0&
#4815000000
1"
1%
#4830000000
1!
0"
1$
0%
#4845000000
1"
1#
1%
1&
#4860000000
0!
0"
0#
0$
0%
0&
#4875000000
1"
1%
#4890000000
1!
0"
1$
0%
#4905000000
1"
1#
1%
1&
#4920000000
0!
0"
0#
0$
0%
0&
#4935000000
1"
1%
#4950000000
1!
0"
1$
0%
#4965000000
1"
1#
1%
1&
#4980000000
0!
0"
0#
0$
0%
0&
#4995000000
1"
1%
#5010000000
1!
0"
1$
0%
#5025000000
1"
1#
1%
1&
#5040000000
0!
0"
0#
0$
0%
0&
#5055000000
1"
1%
#5070000000
1!
0"
1$
0%
#5085000000
1"
1#
1%
1&
#5100000000
0!
0"
0#
0$
0%
0&
#5115000000
1"
1%
#5130000000
1!
0"
1$
0%
#5145000000
1"
1#
1%
1&
#5160000000
0!
0"
0#
0$
0%
0&
#5175000000
1"
1%
#5190000000
1!
0"
1$
0%
#5205000000
1"
1#
1%
1&
#5220000000
0!
0"
0#
0$
0%
0&
#5235000000
1"
1%
#5250000000
1!
0"
1$
0%
#5265000000
1"
1#
1%
1&
#5280000000
0!
0"
0#
0$
0%
0&
#5295000000
1"
1%
#5310000000
1!
0"
1$
0%
#5325000000
1"
1#
1%
1&
#5340000000
0!
0"
0#
0$
0%
0&
#5355000000
1"
1%
#5370000000
1!
0"
1$
0%
#5385000000
1"
1#
1%
1&
#5400000000
0!
0"
0#
0$
0%
0&
#5415000000
1"
1%
#5430000000
1!
0"
1$
0%
#5445000000
1"
1#
1%
1&
#5460000000
0!
0"
0#
0$
0%
0&
#5475000000
1"
1%
#5490000000
1!
0"
1$
0%
#5505000000
1"
1#
1%
1&
#5520000000
0!
0"
0#
0$
0%
0&
#5535000000
1"
1%
#5550000000
1!
0"
1$
0%
#5565000000
1"
1#
1%
1&
#5580000000
0!
0"
0#
0$
0%
0&
#5595000000
1"
1%
#5610000000
1!
0"
1$
0%
#5625000000
1"
1#
1%
1&
#5640000000
0!
0"
0#
0$
0%
0&
#5655000000
1"
1%
#5670000000
1!
0"
1$
0%
#5685000000
1"
1#
1%
1&
#5700000000
0!
0"
0#
0$
0%
0&
#5715000000
1"
1%
#5730000000
1!
0"
1$
0%
#5745000000
1"
1#
1%
1&
#5760000000
0!
0"
0#
0$
0%
0&
#5775000000
1"
1%
#5790000000
1!
0"
1$
0%
#5805000000
1"
1#
1%
1&
#5820000000
0!
0"
0#
0$
0%
0&
#5835000000
1"
1%
#5850000000
1!
0"
1$
0%
#5865000000
1"
1#
1%
1&
#5880000000
0!
0"
0#
0$
0%
0&
#5895000000
1"
1%
#5910000000
1!
0"
1$
0%
#5925000000
1"
1#
1%
1&
#5940000000
0!
0"
0#
0$
0%
0&
#5955000000
1"
1%
#5970000000
1!
0"
1$
0%
#5985000000
1"
1#
1%
1&
#6000000000
0!
0"
0#
0$
0%
0&
#6015000000
1"
1%
#6030000000
1!
0"
1$
0%
#6045000000
1"
1#
1%
1&
#6060000000
0!
0"
0#
0$
0%
0&
#6075000000
1"
1%
#6090000000
1!
0"
1$
0%
#6105000000
1"
1#
1%
1&
#6120000000
0!
0"
0#
0$
0%
0&
#6135000000
1"
1%
#6150000000
1!
0"
1$
0%
#6165000000
1"
1#
1%
1&
#6180000000
0!
0"
0#
0$
0%
0&
#6195000000
1"
1%
#6210000000
1!
0"
1$
0%
#6225000000
1"
1#
1%
1&
#6240000000
0!
0"
0#
0$
0%
0&
#6255000000
1"
1%
#6270000000
1!
0"
1$
0%
#6285000000
1"
1#
1%
1&
#6300000000
0!
0"
0#
0$
0%
0&
#6315000000
1"
1%
#6330000000
1!
0"
1$
0%
#6345000000
1"
1#
1%
1&
#6360000000
0!
0"
0#
0$
0%
0&
#6375000000
1"
1%
#6390000000
1!
0"
1$
0%
#6405000000
1"
1#
1%
1&
#6420000000
0!
0"
0#
0$
0%
0&
#6435000000
1"
1%
#6450000000
1!
0"
1$
0%
#6465000000
1"
1#
1%
1&
#6480000000
0!
0"
0#
0$
0%
0&
#6495000000
1"
1%
#6510000000
1!
0"
1$
0%
#6525000000
1"
1#
1%
1&
#6540000000
0!
0"
0#
0$
0%
0&
#6555000000
1"
1%
#6570000000
1!
0"
1$
0%
#6585000000
1"
1#
1%
1&
#6600000000
0!
0"
0#
0$
0%
0&
#6615000000
1"
1%
#6630000000
1!
0"
1$
0%
#6645000000
1"
1#
1%
1&
#6660000000
0!
0"
0#
0$
0%
0&
#6675000000
1"
1%
#6690000000
1!
0"
1$
0%
#6705000000
1"
1#
1%
1&
#6720000000
0!
0"
0#
0$
0%
0&
#6735000000
1"
1%
#6750000000
1!
0"
1$
0%
#6765000000
1"
1#
1%
1&
#6780000000
0!
0"
0#
0$
0%
0&
#6795000000
1"
1%
#6810000000
1!
0"
1$
0%
#6825000000
1"
1#
1%
1&
#6840000000
0!
0"
0#
0$
0%
0&
#6855000000
1"
1%
#6870000000
1!
0"
1$
0%
#6885000000
1"
1#
1%
1&
#6900000000
0!
0"
0#
0$
0%
0&
#6915000000
1"
1%
#6930000000
1!
0"
1$
0%
#6945000000
1"
1#
1%
1&
#6960000000
0!
0"
0#
0$
0%
0&
#6975000000
1"
1%
#6990000000
1!
0"
1$
0%
#7005000000
1"
1#
1%
1&
#7020000000
0!
0"
0#
0$
0%
0&
#7035000000
1"
1%
#7050000000
1!
0"
1$
0%
#7065000000
1"
1#
1%
1&
#7080000000
0!
0"
0#
0$
0%
0&
#7095000000
1"
1%
#7110000000
1!
0"
1$
0%
#7125000000
1"
1#
1%
1&
#7140000000
0!
0"
0#
0$
0%
0&
#7155000000
1"
1%
#7170000000
1!
0"
1$
0%
#7185000000
1"
1#
1%
1&
#7200000000
0!
0"
0#
0$
0%
0&
#7215000000
1"
1%
#7230000000
1!
0"
1$
0%
#7245000000
1"
1#
1%
1&
#7260000000
0!
0"
0#
0$
0%
0&
#7275000000
1"
1%
#7290000000
1!
0"
1$
0%
#7305000000
1"
1#
1%
1&
#7320000000
0!
0"
0#
0$
0%
0&
#7335000000
1"
1%
#7350000000
1!
0"
1$
0%
#7365000000
1"
1#
1%
1&
#7380000000
0!
0"
0#
0$
0%
0&
#7395000000
1"
1%
#7410000000
1!
0"
1$
0%
#7425000000
1"
1#
1%
1&
#7440000000
0!
0"
0#
0$
0%
0&
#7455000000
1"
1%
#7470000000
1!
0"
1$
0%
#7485000000
1"
1#
1%
1&
#7500000000
0!
0"
0#
0$
0%
0&
#7515000000
1"
1%
#7530000000
1!
0"
1$
0%
#7545000000
1"
1#
1%
1&
#7560000000
0!
0"
0#
0$
0%
0&
#7575000000
1"
1%
#7590000000
1!
0"
1$
0%
#7605000000
1"
1#
1%
1&
#7620000000
0!
0"
0#
0$
0%
0&
#7635000000
1"
1%
#7650000000
1!
0"
1$
0%
#7665000000
1"
1#
1%
1&
#7680000000
0!
0"
0#
0$
0%
0&
#7695000000
1"
1%
#7710000000
1!
0"
1$
0%
#7725000000
1"
1#
1%
1&
#7740000000
0!
0"
0#
0$
0%
0&
#7755000000
1"
1%
#7770000000
1!
0"
1$
0%
#7785000000
1"
1#
1%
1&
#7800000000
0!
0"
0#
0$
0%
0&
#7815000000
1"
1%
#7830000000
1!
0"
1$
0%
#7845000000
1"
1#
1%
1&
#7860000000
0!
0"
0#
0$
0%
0&
#7875000000
1"
1%
#7890000000
1!
0"
1$
0%
#7905000000
1"
1#
1%
1&
#7920000000
0!
0"
0#
0$
0%
0&
#7935000000
1"
1%
#7950000000
1!
0"
1$
0%
#7965000000
1"
1#
1%
1&
#7980000000
0!
0"
0#
0$
0%
0&
#7995000000
1"
1%
#8010000000
1!
0"
1$
0%
#8025000000
1"
1#
1%
1&
#8040000000
0!
0"
0#
0$
0%
0&
#8055000000
1"
1%
#8070000000
1!
0"
1$
0%
#8085000000
1"
1#
1%
1&
#8100000000
0!
0"
0#
0$
0%
0&
#8115000000
1"
1%
#8130000000
1!
0"
1$
0%
#8145000000
1"
1#
1%
1&
#8160000000
0!
0"
0#
0$
0%
0&
#8175000000
1"
1%
#8190000000
1!
0"
1$
0%
#8205000000
1"
1#
1%
1&
#8220000000
0!
0"
0#
0$
0%
0&
#8235000000
1"
1%
#8250000000
1!
0"
1$
0%
#8265000000
1"
1#
1%
1&
#8280000000
0!
0"
0#
0$
0%
0&
#8295000000
1"
1%
#8310000000
1!
0"
1$
0%
#8325000000
1"
1#
1%
1&
#8340000000
0!
0"
0#
0$
0%
0&
#8355000000
1"
1%
#8370000000
1!
0"
1$
0%
#8385000000
1"
1#
1%
1&
#8400000000
0!
0"
0#
0$
0%
0&
#8415000000
1"
1%
#8430000000
1!
0"
1$
0%
#8445000000
1"
1#
1%
1&
#8460000000
0!
0"
0#
0$
0%
0&
#8475000000
1"
1%
#8490000000
1!
0"
1$
0%
#8505000000
1"
1#
1%
1&
#8520000000
0!
0"
0#
0$
0%
0&
#8535000000
1"
1%
#8550000000
1!
0"
1$
0%
#8565000000
1"
1#
1%
1&
#8580000000
0!
0"
0#
0$
0%
0&
#8595000000
1"
1%
#8610000000
1!
0"
1$
0%
#8625000000
1"
1#
1%
1&
#8640000000
0!
0"
0#
0$
0%
0&
#8655000000
1"
1%
#8670000000
1!
0"
1$
0%
#8685000000
1"
1#
1%
1&
#8700000000
0!
0"
0#
0$
0%
0&
#8715000000
1"
1%
#8730000000
1!
0"
1$
0%
#8745000000
1"
1#
1%
1&
#8760000000
0!
0"
0#
0$
0%
0&
#8775000000
1"
1%
#8790000000
1!
0"
1$
0%
#8805000000
1"
1#
1%
1&
#8820000000
0!
0"
0#
0$
0%
0&
#8835000000
1"
1%
#8850000000
1!
0"
1$
0%
#8865000000
1"
1#
1%
1&
#8880000000
0!
0"
0#
0$
0%
0&
#8895000000
1"
1%
#8910000000
1!
0"
1$
0%
#8925000000
1"
1#
1%
1&
#8940000000
0!
0"
0#
0$
0%
0&
#8955000000
1"
1%
#8970000000
1!
0"
1$
0%
#8985000000
1"
1#
1%
1&
#9000000000
0!
0"
0#
0$
0%
0&
#9015000000
1"
1%
#9030000000
1!
0"
1$
0%
#9045000000
1"
1#
1%
1&
#9060000000
0!
0"
0#
0$
0%
0&
#9075000000
1"
1%
#9090000000
1!
0"
1$
0%
#9105000000
1"
1#
1%
1&
#9120000000
0!
0"
0#
0$
0%
0&
#9135000000
1"
1%
#9150000000
1!
0"
1$
0%
#9165000000
1"
1#
1%
1&
#9180000000
0!
0"
0#
0$
0%
0&
#9195000000
1"
1%
#9210000000
1!
0"
1$
0%
#9225000000
1"
1#
1%
1&
#9240000000
0!
0"
0#
0$
0%
0&
#9255000000
1"
1%
#9270000000
1!
0"
1$
0%
#9285000000
1"
1#
1%
1&
#9300000000
0!
0"
0#
0$
0%
0&
#9315000000
1"
1%
#9330000000
1!
0"
1$
0%
#9345000000
1"
1#
1%
1&
#9360000000
0!
0"
0#
0$
0%
0&
#9375000000
1"
1%
#9390000000
1!
0"
1$
0%
#9405000000
1"
1#
1%
1&
#9420000000
0!
0"
0#
0$
0%
0&
#9435000000
1"
1%
#9450000000
1!
0"
1$
0%
#9465000000
1"
1#
1%
1&
#9480000000
0!
0"
0#
0$
0%
0&
#9495000000
1"
1%
#9510000000
1!
0"
1$
0%
#9525000000
1"
1#
1%
1&
#9540000000
0!
0"
0#
0$
0%
0&
#9555000000
1"
1%
#9570000000
1!
0"
1$
0%
#9585000000
1"
1#
1%
1&
#9600000000
0!
0"
0#
0$
0%
0&
#9615000000
1"
1%
#9630000000
1!
0"
1$
0%
#9645000000
1"
1#
1%
1&
#9660000000
0!
0"
0#
0$
0%
0&
#9675000000
1"
1%
#9690000000
1!
0"
1$
0%
#9705000000
1"
1#
1%
1&
#9720000000
0!
0"
0#
0$
0%
0&
#9735000000
1"
1%
#9750000000
1!
0"
1$
0%
#9765000000
1"
1#
1%
1&
#9780000000
0!
0"
0#
0$
0%
0&
#9795000000
1"
1%
#9810000000
1!
0"
1$
0%
#9825000000
1"
1#
1%
1&
#9840000000
0!
0"
0#
0$
0%
0&
#9855000000
1"
1%
#9870000000
1!
0"
1$
0%
#9885000000
1"
1#
1%
1&
#9900000000
0!
0"
0#
0$
0%
0&
#9915000000
1"
1%
#9930000000
1!
0"
1$
0%
#9945000000
1"
1#
1%
1&
#9960000000
0!
0"
0#
0$
0%
0&
#9975000000
1"
1%
#9990000000
1!
0"
1$
0%
#10005000000
1"
1#
1%
1&
#10020000000
0!
0"
0#
0$
0%
0&
#10035000000
1"
1%
#10050000000
1!
0"
1$
0%
#10065000000
1"
1#
1%
1&
#10080000000
0!
0"
0#
0$
0%
0&
#10095000000
1"
1%
#10110000000
1!
0"
1$
0%
#10125000000
1"
1#
1%
1&
#10140000000
0!
0"
0#
0$
0%
0&
#10155000000
1"
1%
#10170000000
1!
0"
1$
0%
#10185000000
1"
1#
1%
1&
#10200000000
0!
0"
0#
0$
0%
0&
#10215000000
1"
1%
#10230000000
1!
0"
1$
0%
#10245000000
1"
1#
1%
1&
#10260000000
0!
0"
0#
0$
0%
0&
#10275000000
1"
1%
#10290000000
1!
0"
1$
0%
#10305000000
1"
1#
1%
1&
#10320000000
0!
0"
0#
0$
0%
0&
#10335000000
1"
1%
#10350000000
1!
0"
1$
0%
#10365000000
1"
1#
1%
1&
#10380000000
0!
0"
0#
0$
0%
0&
#10395000000
1"
1%
#10410000000
1!
0"
1$
0%
#10425000000
1"
1#
1%
1&
#10440000000
0!
0"
0#
0$
0%
0&
#10455000000
1"
1%
#10470000000
1!
0"
1$
0%
#10485000000
1"
1#
1%
1&
#10500000000
0!
0"
0#
0$
0%
0&
#10515000000
1"
1%
#10530000000
1!
0"
1$
0%
#10545000000
1"
1#
1%
1&
#10560000000
0!
0"
0#
0$
0%
0&
#10575000000
1"
1%
#10590000000
1!
0"
1$
0%
#10605000000
1"
1#
1%
1&
#10620000000
0!
0"
0#
0$
0%
0&
#10635000000
1"
1%
#10650000000
1!
0"
1$
0%
#10665000000
1"
1#
1%
1&
#10680000000
0!
0"
0#
0$
0%
0&
#10695000000
1"
1%
#10710000000
1!
0"
1$
0%
#10725000000
1"
1#
1%
1&
#10740000000
0!
0"
0#
0$
0%
0&
#10755000000
1"
1%
#10770000000
1!
0"
1$
0%
#10785000000
1"
1#
1%
1&
#10800000000
0!
0"
0#
0$
0%
0&
#10815000000
1"
1%
#10830000000
1!
0"
1$
0%
#10845000000
1"
1#
1%
1&
#10860000000
0!
0"
0#
0$
0%
0&
#10875000000
1"
1%
#10890000000
1!
0"
1$
0%
#10905000000
1"
1#
1%
1&
#10920000000
0!
0"
0#
0$
0%
0&
#10935000000
1"
1%
#10950000000
1!
0"
1$
0%
#10965000000
1"
1#
1%
1&
#10980000000
0!
0"
0#
0$
0%
0&
#10995000000
1"
1%
#11010000000
1!
0"
1$
0%
#11025000000
1"
1#
1%
1&
#11040000000
0!
0"
0#
0$
0%
0&
#11055000000
1"
1%
#11070000000
1!
0"
1$
0%
#11085000000
1"
1#
1%
1&
#11100000000
0!
0"
0#
0$
0%
0&
#11115000000
1"
1%
#11130000000
1!
0"
1$
0%
#11145000000
1"
1#
1%
1&
#11160000000
0!
0"
0#
0$
0%
0&
#11175000000
1"
1%
#11190000000
1!
0"
1$
0%
#11205000000
1"
1#
1%
1&
#11220000000
0!
0"
0#
0$
0%
0&
#11235000000
1"
1%
#11250000000
1!
0"
1$
0%
#11265000000
1"
1#
1%
1&
#11280000000
0!
0"
0#
0$
0%
0&
#11295000000
1"
1%
#11310000000
1!
0"
1$
0%
#11325000000
1"
1#
1%
1&
#11340000000
0!
0"
0#
0$
0%
0&
#11355000000
1"
1%
#11370000000
1!
0"
1$
0%
#11385000000
1"
1#
1%
1&
#11400000000
0!
0"
0#
0$
0%
0&
#11415000000
1"
1%
#11430000000
1!
0"
1$
0%
#11445000000
1"
1#
1%
1&
#11460000000
0!
0"
0#
0$
0%
0&
#11475000000
1"
1%
#11490000000
1!
0"
1$
0%
#11505000000
1"
1#
1%
1&
#11520000000
0!
0"
0#
0$
0%
0&
#11535000000
1"
1%
#11550000000
1!
0"
1$
0%
#11565000000
1"
1#
1%
1&
#11580000000
0!
0"
0#
0$
0%
0&
#11595000000
1"
1%
#11610000000
1!
0"
1$
0%
#11625000000
1"
1#
1%
1&
#11640000000
0!
0"
0#
0$
0%
0&
#11655000000
1"
1%
#11670000000
1!
0"
1$
0%
#11685000000
1"
1#
1%
1&
#11700000000
0!
0"
0#
0$
0%
0&
#11715000000
1"
1%
#11730000000
1!
0"
1$
0%
#11745000000
1"
1#
1%
1&
#11760000000
0!
0"
0#
0$
0%
0&
#11775000000
1"
1%
#11790000000
1!
0"
1$
0%
#11805000000
1"
1#
1%
1&
#11820000000
0!
0"
0#
0$
0%
0&
#11835000000
1"
1%
#11850000000
1!
0"
1$
0%
#11865000000
1"
1#
1%
1&
#11880000000
0!
0"
0#
0$
0%
0&
#11895000000
1"
1%
#11910000000
1!
0"
1$
0%
#11925000000
1"
1#
1%
1&
#11940000000
0!
0"
0#
0$
0%
0&
#11955000000
1"
1%
#11970000000
1!
0"
1$
0%
#11985000000
1"
1#
1%
1&
#12000000000
0!
0"
0#
0$
0%
0&
#12015000000
1"
1%
#12030000000
1!
0"
1$
0%
#12045000000
1"
1#
1%
1&
#12060000000
0!
0"
0#
0$
0%
0&
#12075000000
1"
1%
#12090000000
1!
0"
1$
0%
#12105000000
1"
1#
1%
1&
#12120000000
0!
0"
0#
0$
0%
0&
#12135000000
1"
1%
#12150000000
1!
0"
1$
0%
#12165000000
1"
1#
1%
1&
#12180000000
0!
0"
0#
0$
0%
0&
#12195000000
1"
1%
#12210000000
1!
0"
1$
0%
#12225000000
1"
1#
1%
1&
#12240000000
0!
0"
0#
0$
0%
0&
#12255000000
1"
1%
#12270000000
1!
0"
1$
0%
#12285000000
1"
1#
1%
1&
#12300000000
0!
0"
0#
0$
0%
0&
#12315000000
1"
1%
#12330000000
1!
0"
1$
0%
#12345000000
1"
1#
1%
1&
#12360000000
0!
0"
0#
0$
0%
0&
#12375000000
1"
1%
#12390000000
1!
0"
1$
0%
